stage0_test.vcd
$date
	Thu Mar 12 12:02:18 2026
$end
$version
	Icarus Verilog
$end
$timescale
	1ps
$end
$scope module tb_fma_fp32_stage0 $end
$var wire 1 ! valid_out $end
$var wire 1 " underflow $end
$var wire 32 # result [31:0] $end
$var wire 1 $ overflow $end
$var wire 1 % inexact $end
$var parameter 32 & FP32_FIVE $end
$var parameter 32 ' FP32_FOUR $end
$var parameter 32 ( FP32_HALF $end
$var parameter 32 ) FP32_INF $end
$var parameter 32 * FP32_NAN $end
$var parameter 32 + FP32_NEG_INF $end
$var parameter 32 , FP32_NEG_ONE $end
$var parameter 32 - FP32_ONE $end
$var parameter 32 . FP32_TEN $end
$var parameter 32 / FP32_THREE $end
$var parameter 32 0 FP32_TWO $end
$var parameter 32 1 FP32_ZERO $end
$var reg 32 2 A [31:0] $end
$var reg 32 3 B [31:0] $end
$var reg 32 4 C [31:0] $end
$var reg 1 5 clk $end
$var reg 1 6 rst_n $end
$var reg 1 7 valid_in $end
$var integer 32 8 fail_count [31:0] $end
$var integer 32 9 pass_count [31:0] $end
$var integer 32 : test_count [31:0] $end
$scope module dut $end
$var wire 32 ; A [31:0] $end
$var wire 32 < B [31:0] $end
$var wire 32 = C [31:0] $end
$var wire 1 > a_is_denorm $end
$var wire 1 ? a_is_inf $end
$var wire 1 @ a_is_nan $end
$var wire 1 A a_is_zero $end
$var wire 1 B b_is_denorm $end
$var wire 1 C b_is_inf $end
$var wire 1 D b_is_nan $end
$var wire 1 E b_is_zero $end
$var wire 1 F c_is_denorm $end
$var wire 1 G c_is_inf $end
$var wire 1 H c_is_nan $end
$var wire 1 I c_is_zero $end
$var wire 1 5 clk $end
$var wire 50 J csa_sum [49:0] $end
$var wire 1 K eff_sub $end
$var wire 1 L final_inexact $end
$var wire 1 M inf_result $end
$var wire 1 N nan_result $end
$var wire 1 O product_sign $end
$var wire 1 P round_up $end
$var wire 1 6 rst_n $end
$var wire 1 Q special_case $end
$var wire 1 R sub_borrow $end
$var wire 1 7 valid_in $end
$var wire 23 S trunc_mantissa [22:0] $end
$var wire 1 T sticky_bit $end
$var wire 24 U rounded_mantissa [23:0] $end
$var wire 1 V round_bit $end
$var wire 1 W result_sign $end
$var wire 51 X raw_result [50:0] $end
$var wire 51 Y norm_mantissa [50:0] $end
$var wire 10 Z norm_exp_signed [9:0] $end
$var wire 9 [ norm_exp [8:0] $end
$var wire 51 \ magnitude [50:0] $end
$var wire 1 ] inf_sign $end
$var wire 1 ^ guard_bit $end
$var wire 23 _ final_mantissa [22:0] $end
$var wire 9 ` final_exp [8:0] $end
$var wire 10 a exp_diff [9:0] $end
$var wire 50 b csa_op_b [49:0] $end
$var wire 50 c csa_op_a [49:0] $end
$var wire 1 d csa_cin $end
$var wire 50 e csa_carry [49:0] $end
$var wire 50 f cin_ext [49:0] $end
$var wire 1 g c_sign $end
$var wire 24 h c_mantissa [23:0] $end
$var wire 23 i c_man [22:0] $end
$var wire 8 j c_exp_adj [7:0] $end
$var wire 8 k c_exp [7:0] $end
$var wire 1 l b_sign $end
$var wire 24 m b_mantissa [23:0] $end
$var wire 23 n b_man [22:0] $end
$var wire 8 o b_exp_adj [7:0] $end
$var wire 8 p b_exp [7:0] $end
$var wire 1 q a_sign $end
$var wire 24 r a_mantissa [23:0] $end
$var wire 23 s a_man [22:0] $end
$var wire 8 t a_exp_adj [7:0] $end
$var wire 8 u a_exp [7:0] $end
$var reg 9 v align_exp [8:0] $end
$var reg 50 w c_aligned [49:0] $end
$var reg 1 % inexact $end
$var reg 6 x lzd_count [5:0] $end
$var reg 1 $ overflow $end
$var reg 50 y product_aligned [49:0] $end
$var reg 32 z result [31:0] $end
$var reg 8 { s1_c_exp [7:0] $end
$var reg 24 | s1_c_mantissa [23:0] $end
$var reg 1 } s1_c_sign $end
$var reg 9 ~ s1_exp_sum [8:0] $end
$var reg 1 !" s1_inf $end
$var reg 1 "" s1_inf_sign $end
$var reg 1 #" s1_nan $end
$var reg 1 $" s1_prod_zero $end
$var reg 48 %" s1_product [47:0] $end
$var reg 1 &" s1_product_sign $end
$var reg 1 '" s1_special $end
$var reg 1 (" s1_valid $end
$var reg 1 )" s2_c_sign $end
$var reg 1 *" s2_c_zero $end
$var reg 50 +" s2_carry [49:0] $end
$var reg 1 ," s2_eff_sub $end
$var reg 9 -" s2_exp [8:0] $end
$var reg 1 ." s2_inf $end
$var reg 1 /" s2_inf_sign $end
$var reg 1 0" s2_nan $end
$var reg 1 1" s2_prod_zero $end
$var reg 1 2" s2_product_sign $end
$var reg 1 3" s2_special $end
$var reg 50 4" s2_sum [49:0] $end
$var reg 1 5" s2_valid $end
$var reg 1 " underflow $end
$var reg 1 ! valid_out $end
$var integer 32 6" k [31:0] $end
$upscope $end
$scope task apply_input $end
$var reg 32 7" a_val [31:0] $end
$var reg 32 8" b_val [31:0] $end
$var reg 32 9" c_val [31:0] $end
$upscope $end
$scope task check_inf $end
$var reg 1 :" expected_sign $end
$var reg 256 ;" test_name [255:0] $end
$upscope $end
$scope task check_nan $end
$var reg 256 <" test_name [255:0] $end
$upscope $end
$scope task check_result $end
$var reg 32 =" expected [31:0] $end
$var reg 256 >" test_name [255:0] $end
$upscope $end
$scope task wait_result $end
$upscope $end
$upscope $end
$enddefinitions $end
$comment Show the parameter values. $end
$dumpall
b0 1
b1000000000000000000000000000000 0
b1000000010000000000000000000000 /
b1000001001000000000000000000000 .
b111111100000000000000000000000 -
b10111111100000000000000000000000 ,
b11111111100000000000000000000000 +
b1111111110000000000000000000000 *
b1111111100000000000000000000000 )
b111111000000000000000000000000 (
b1000000100000000000000000000000 '
b1000000101000000000000000000000 &
$end
#0
$dumpvars
bx >"
bx ="
bx <"
bx ;"
x:"
bx 9"
bx 8"
bx 7"
b110011 6"
05"
b0 4"
03"
02"
01"
00"
0/"
0."
b0 -"
0,"
b0 +"
0*"
0)"
0("
0'"
0&"
b0 %"
0$"
0#"
0""
0!"
b0 ~
0}
b0 |
b0 {
b0 z
b0 y
b110011 x
b0 w
b0 v
b0 u
b0 t
b0 s
b0 r
0q
b0 p
b0 o
b0 n
b0 m
0l
b0 k
b0 j
b0 i
b0 h
0g
b0 f
b0 e
0d
b0 c
b0 b
b0 a
b111001111 `
b0 _
0^
0]
b0 \
b111001111 [
b1111001111 Z
b0 Y
b0 X
0W
0V
b0 U
0T
b0 S
0R
0Q
0P
0O
0N
0M
0L
0K
b0 J
1I
0H
0G
0F
1E
0D
0C
0B
1A
0@
0?
0>
b0 =
b0 <
b0 ;
b0 :
b0 9
b0 8
07
06
05
b0 4
b0 3
b0 2
0%
0$
b0 #
0"
0!
$end
#5000
15
#10000
05
#15000
15
#20000
05
#25000
15
#30000
05
#35000
15
#40000
05
#45000
b110000001 v
1*"
1$"
b110000001 a
b110000001 ~
16
15
#50000
05
#55000
b101010000 `
b101010000 [
11"
b101010000 Z
b110000001 -"
15
#60000
05
#65000
b0 9"
b111111100000000000000000000000 8"
b111111100000000000000000000000 7"
15
#70000
05
#75000
b100000000000000000000000 m
b100000000000000000000000 r
0E
b1111111 o
0A
b1111111 t
b1111111 p
b1111111 u
17
b111111100000000000000000000000 3
b111111100000000000000000000000 <
b111111100000000000000000000000 2
b111111100000000000000000000000 ;
15
#80000
05
#85000
b1000000000000000000000000000000000000000000000000 J
b1111111 v
b1000000000000000000000000000000000000000000000000 c
b1000000000000000000000000000000000000000000000000 y
0$"
b10000000000000000000000000000000000000000000000 %"
b1111111 a
b1111111 ~
1("
07
15
#90000
05
#95000
b100000000000000000000000000000000000000000000000000 Y
b10 x
b110011 6"
b1111111 `
b1000000000000000000000000000000000000000000000000 \
b1111111 [
0("
01"
b1000000000000000000000000000000000000000000000000 X
b1000000000000000000000000000000000000000000000000 4"
b1111111 Z
b1111111 -"
15"
15
#100000
05
#105000
b111111100000000000000000000000 #
b111111100000000000000000000000 z
1!
05"
15
#110000
05
#115000
0!
b1000000100000000000000000000000 9"
b1000000010000000000000000000000 8"
b1000000000000000000000000000000 7"
b1 9
b1 :
b1100010010111000110000001000000010101000100000001100010010111000110000001000000010101100100000001100000010111000110000 >"
b111111100000000000000000000000 ="
15
#120000
05
#125000
b100000000000000000000000 h
b110000000000000000000000 m
0I
b10000001 j
b10000000 o
b10000000 t
b10000001 k
b10000000 p
b10000000000000000000000 n
b10000000 u
17
b1000000100000000000000000000000 4
b1000000100000000000000000000000 =
b1000000010000000000000000000000 3
b1000000010000000000000000000000 <
b1000000000000000000000000000000 2
b1000000000000000000000000000000 ;
15
#130000
05
#135000
b10000000000000000000000000000000000000000000000000 e
b100000000000000000000000000000000000000000000000 J
b1000000000000000000000000000000000000000000000000 b
b10000001 v
b1000000000000000000000000000000000000000000000000 w
b1100000000000000000000000000000000000000000000000 c
b1100000000000000000000000000000000000000000000000 y
b100000000000000000000000 |
b11000000000000000000000000000000000000000000000 %"
b10000001 {
b0 a
b10000001 ~
1("
07
15
#140000
05
#145000
b1000000000000000000000 _
b1000000000000000000000 U
b1000000000000000000000 S
b110011 6"
b1 x
b10000010 `
b101000000000000000000000000000000000000000000000000 Y
b10100000000000000000000000000000000000000000000000 \
b10000010 [
0*"
b10000000000000000000000000000000000000000000000000 +"
b10100000000000000000000000000000000000000000000000 X
b100000000000000000000000000000000000000000000000 4"
b10000010 Z
b10000001 -"
15"
0("
15
#150000
05
#155000
05"
b1000001001000000000000000000000 #
b1000001001000000000000000000000 z
1!
15
#160000
05
#165000
0!
b111111100000000000000000000000 9"
b111111100000000000000000000000 8"
b111111100000000000000000000000 7"
b10 9
b10 :
b1100100010111000110000001000000010101000100000001100110010111000110000001000000010101100100000001101000010111000110000 >"
b1000001001000000000000000000000 ="
15
#170000
05
#175000
b100000000000000000000000 m
b1111111 j
b1111111 o
b1111111 t
b1111111 k
b1111111 p
b0 n
b1111111 u
17
b111111100000000000000000000000 4
b111111100000000000000000000000 =
b111111100000000000000000000000 3
b111111100000000000000000000000 <
b111111100000000000000000000000 2
b111111100000000000000000000000 ;
15
#180000
05
#185000
b0 J
b1111111 v
b1000000000000000000000000000000000000000000000000 c
b1000000000000000000000000000000000000000000000000 y
b10000000000000000000000000000000000000000000000 %"
b1111111 {
b0 a
b1111111 ~
1("
07
15
#190000
05
#195000
b0 _
b0 U
b0 S
b110011 6"
b1 x
b10000000 `
b100000000000000000000000000000000000000000000000000 Y
b10000000000000000000000000000000000000000000000000 \
b10000000 [
0("
b10000000000000000000000000000000000000000000000000 X
b0 4"
b10000000 Z
b1111111 -"
15"
15
#200000
05
#205000
b1000000000000000000000000000000 #
b1000000000000000000000000000000 z
1!
05"
15
#210000
05
#215000
0!
b0 9"
b1111111110000000000000000000000 7"
b11 9
b11 :
b1100010010111000110000001000000010101000100000001100010010111000110000001000000010101100100000001100010010111000110000 >"
b1000000000000000000000000000000 ="
15
#220000
05
#225000
1Q
1N
b0 h
b110000000000000000000000 r
1I
b0 j
b11111111 t
1@
b0 k
b11111111 u
b10000000000000000000000 s
17
b0 4
b0 =
b1111111110000000000000000000000 2
b1111111110000000000000000000000 ;
15
#230000
05
#235000
b0 e
b1100000000000000000000000000000000000000000000000 J
b0 b
b11111111 v
b0 w
b1100000000000000000000000000000000000000000000000 c
b1100000000000000000000000000000000000000000000000 y
b0 |
b11000000000000000000000000000000000000000000000 %"
b0 {
b11111111 a
b11111111 ~
1#"
1'"
1("
07
15
#240000
05
#245000
b10000000000000000000000 _
b10000000000000000000000 U
b10000000000000000000000 S
b110011 6"
b10 x
b11111111 `
b110000000000000000000000000000000000000000000000000 Y
b1100000000000000000000000000000000000000000000000 \
b11111111 [
1*"
b0 +"
b1100000000000000000000000000000000000000000000000 X
b1100000000000000000000000000000000000000000000000 4"
b11111111 Z
b11111111 -"
10"
13"
15"
0("
15
#250000
05
#255000
05"
b1111111110000000000000000000000 #
b1111111110000000000000000000000 z
1!
15
#260000
05
#265000
0!
b1111111100000000000000000000000 8"
b0 7"
b100 9
b100 :
b10011100110000101001110001000000010101000100000001100010010111000110000001000000010101100100000001100000010111000110000 <"
15
#270000
05
#275000
b0 r
1C
b11111111 o
b0 t
1A
0@
b11111111 p
b0 u
b0 s
17
b1111111100000000000000000000000 3
b1111111100000000000000000000000 <
b0 2
b0 ;
15
#280000
05
#285000
b0 J
b10000000 v
b0 c
b0 y
1$"
b0 %"
b10000000 a
b10000000 ~
1("
07
15
#290000
05
#295000
b0 _
b0 U
b0 S
b110011 6"
b110011 x
b1001111 `
b0 Y
b0 \
b1001111 [
0("
11"
b0 X
b0 4"
b1001111 Z
b10000000 -"
15"
15
#300000
05
#305000
1!
05"
15
#310000
05
#315000
0!
b11111111100000000000000000000000 9"
b111111100000000000000000000000 7"
b101 9
b101 :
b1100000010111000110000001000000010101000100000010010010110111001100110001000000010101100100000001100000010111000110000 <"
15
#320000
05
#325000
b100000000000000000000000 h
b100000000000000000000000 r
0I
1G
b11111111 j
0A
b1111111 t
1g
b11111111 k
b1111111 u
17
b11111111100000000000000000000000 4
b11111111100000000000000000000000 =
b111111100000000000000000000000 2
b111111100000000000000000000000 ;
15
#330000
05
#335000
b10 e
b11111111111111111111111111111111111111111111111110 J
b10111111111111111111111111111111111111111111111111 b
b1 f
1d
b11111111 v
b1000000000000000000000000000000000000000000000000 w
b1000000000000000000000000000000000000000000000000 c
b1000000000000000000000000000000000000000000000000 y
1K
0$"
b100000000000000000000000 |
b10000000000000000000000000000000000000000000000 %"
b11111111 {
b0 a
b11111111 ~
1}
1("
07
15
#340000
05
#345000
b11001110 `
b0 Y
b110011 x
b110011 6"
0W
b11001110 [
b0 \
0R
0*"
01"
b10 +"
b100000000000000000000000000000000000000000000000000 X
b11111111111111111111111111111111111111111111111110 4"
b11001110 Z
b11111111 -"
1,"
1)"
15"
0("
15
#350000
05
#355000
05"
1!
15
#360000
05
#365000
0!
b0 9"
b110 9
b110 :
b1100010010111000110000001000000010101000100000010010010110111001100110001000000010101100100000001010000010110101001001011011100110011000101001 <"
15
#370000
05
#375000
1M
0N
b0 h
1I
0G
b0 j
0g
b0 k
17
b0 4
b0 =
15
#380000
05
#385000
b0 e
b1000000000000000000000000000000000000000000000000 J
b0 b
b0 f
0d
b0 w
0K
b0 |
b11111111 a
b0 {
0}
1!"
0#"
1("
07
15
#390000
05
#395000
b11111111 `
b11111111 [
b100000000000000000000000000000000000000000000000000 Y
b11111111 Z
b10 x
b110011 6"
b1000000000000000000000000000000000000000000000000 \
0("
1*"
b0 +"
b1000000000000000000000000000000000000000000000000 X
b1000000000000000000000000000000000000000000000000 4"
0,"
0)"
1."
00"
15"
15
#400000
05
#405000
b1111111100000000000000000000000 #
b1111111100000000000000000000000 z
1!
05"
15
#410000
05
#415000
0!
b0 8"
b0 7"
b111 9
b111 :
b1100010010111000110000001000000010101000100000010010010110111001100110001000000010101100100000001100000010111000110000 ;"
0:"
15
#420000
05
#425000
0M
b0 m
0Q
b0 r
1E
0C
b0 o
1A
b0 t
b0 p
b0 u
17
b0 3
b0 <
b0 2
b0 ;
15
#430000
05
#435000
b0 J
b110000001 v
b0 c
b0 y
1$"
b0 %"
b110000001 a
b110000001 ~
0!"
0'"
1("
07
15
#440000
05
#445000
b110011 6"
b110011 x
b101010000 `
b0 Y
b0 \
b101010000 [
11"
b0 X
b0 4"
b101010000 Z
b110000001 -"
0."
03"
15"
0("
15
#450000
05
#455000
05"
b0 #
b0 z
1!
15
#460000
05
#465000
0!
b1000 9
b1000 :
b1100000010111000110000001000000010101000100000001100000010111000110000001000000010101100100000001100000010111000110000 >"
b0 ="
15
