stage3_test.vcd
$date
	Thu Mar 12 12:02:18 2026
$end
$version
	Icarus Verilog
$end
$timescale
	1ps
$end
$scope module tb_fma_acc_stage3 $end
$var wire 1 ! valid_out $end
$var wire 1 " underflow $end
$var wire 32 # result [31:0] $end
$var wire 1 $ overflow $end
$var wire 1 % inexact $end
$var wire 32 & acc_out [31:0] $end
$var parameter 32 ' FP16_FOUR $end
$var parameter 32 ( FP16_ONE $end
$var parameter 32 ) FP16_TEN $end
$var parameter 32 * FP16_THREE $end
$var parameter 32 + FP16_TWO $end
$var parameter 32 , FP16_ZERO $end
$var parameter 32 - FP32_FOUR $end
$var parameter 32 . FP32_ONE $end
$var parameter 32 / FP32_TEN $end
$var parameter 32 0 FP32_THREE $end
$var parameter 32 1 FP32_TWO $end
$var parameter 32 2 FP32_ZERO $end
$var reg 32 3 A [31:0] $end
$var reg 32 4 B [31:0] $end
$var reg 32 5 C [31:0] $end
$var reg 1 6 acc_en $end
$var reg 32 7 acc_in [31:0] $end
$var reg 1 8 clk $end
$var reg 3 9 mode [2:0] $end
$var reg 1 : rst_n $end
$var reg 1 ; valid_in $end
$var integer 32 < fail_count [31:0] $end
$var integer 32 = pass_count [31:0] $end
$var integer 32 > test_count [31:0] $end
$scope module dut $end
$var wire 32 ? A [31:0] $end
$var wire 32 @ B [31:0] $end
$var wire 32 A C [31:0] $end
$var wire 1 B a16_is_denorm $end
$var wire 1 C a16_is_inf $end
$var wire 1 D a16_is_nan $end
$var wire 1 E a16_is_zero $end
$var wire 1 F a32_is_denorm $end
$var wire 1 G a32_is_inf $end
$var wire 1 H a32_is_nan $end
$var wire 1 I a32_is_zero $end
$var wire 1 6 acc_en $end
$var wire 32 J acc_in [31:0] $end
$var wire 1 K b16_is_denorm $end
$var wire 1 L b16_is_inf $end
$var wire 1 M b16_is_nan $end
$var wire 1 N b16_is_zero $end
$var wire 1 O b32_is_denorm $end
$var wire 1 P b32_is_inf $end
$var wire 1 Q b32_is_nan $end
$var wire 1 R b32_is_zero $end
$var wire 1 S c16_is_denorm $end
$var wire 1 T c16_is_inf $end
$var wire 1 U c16_is_nan $end
$var wire 1 V c16_is_zero $end
$var wire 1 W c32_is_denorm $end
$var wire 1 X c32_is_inf $end
$var wire 1 Y c32_is_nan $end
$var wire 1 Z c32_is_zero $end
$var wire 1 [ c32_sel $end
$var wire 1 \ c_eff_is_denorm $end
$var wire 1 ] c_eff_is_inf $end
$var wire 1 ^ c_eff_is_nan $end
$var wire 1 _ c_eff_is_zero $end
$var wire 1 8 clk $end
$var wire 50 ` csa_sum_fp [49:0] $end
$var wire 1 a eff_sub_fp $end
$var wire 1 b fp16_ov $end
$var wire 1 c fp16_uf $end
$var wire 1 d fp32_ov $end
$var wire 1 e fp32_uf $end
$var wire 1 f inf_result_fp $end
$var wire 1 g is_acc $end
$var wire 1 h is_acc_out $end
$var wire 3 i mode [2:0] $end
$var wire 1 j nan_result_fp $end
$var wire 1 k product_sign_fp $end
$var wire 1 : rst_n $end
$var wire 1 l rup_fp $end
$var wire 1 m sub_borrow_fp $end
$var wire 1 n use_fp16_fields $end
$var wire 1 ; valid_in $end
$var wire 23 o trunc_fp [22:0] $end
$var wire 1 p sbit_fp $end
$var wire 1 q rsign_fp $end
$var wire 24 r rnd_fp [23:0] $end
$var wire 1 s rbit_fp $end
$var wire 51 t raw_fp [50:0] $end
$var wire 51 u norm_man_fp [50:0] $end
$var wire 10 v nexp_fp_s [9:0] $end
$var wire 9 w nexp_fp [8:0] $end
$var wire 51 x mag_fp [50:0] $end
$var wire 1 y is_fp8_out $end
$var wire 1 z is_fp8 $end
$var wire 1 { is_fp32 $end
$var wire 1 | is_fp16_out $end
$var wire 1 } is_fp16 $end
$var wire 1 ~ is_acc8 $end
$var wire 1 !" is_acc16 $end
$var wire 1 "" inf_sign_fp $end
$var wire 1 #" gbit_fp $end
$var wire 32 $" fp32_res [31:0] $end
$var wire 16 %" fp16_res [15:0] $end
$var wire 9 &" fp16_eb [8:0] $end
$var wire 23 '" fman_fp [22:0] $end
$var wire 9 (" fexp_fp [8:0] $end
$var wire 10 )" exp_diff_fp [9:0] $end
$var wire 50 *" csa_carry_fp [49:0] $end
$var wire 50 +" csa_b_fp [49:0] $end
$var wire 50 ," csa_a_fp [49:0] $end
$var wire 50 -" cin_fp [49:0] $end
$var wire 1 ." c_sign_fp $end
$var wire 24 /" c_mantissa [23:0] $end
$var wire 1 0" c_is_zero $end
$var wire 1 1" c_is_nan $end
$var wire 1 2" c_is_inf $end
$var wire 8 3" c_exp_val [7:0] $end
$var wire 32 4" c_effective [31:0] $end
$var wire 1 5" c_eff_sign $end
$var wire 23 6" c_eff_man [22:0] $end
$var wire 8 7" c_eff_exp [7:0] $end
$var wire 1 8" c32_sign $end
$var wire 23 9" c32_man [22:0] $end
$var wire 8 :" c32_exp [7:0] $end
$var wire 24 ;" c32_eff_mantissa [23:0] $end
$var wire 8 <" c32_eff_exp_adj [7:0] $end
$var wire 1 =" c16_sign $end
$var wire 11 >" c16_mraw [10:0] $end
$var wire 10 ?" c16_man [9:0] $end
$var wire 8 @" c16_exp_fp32 [7:0] $end
$var wire 5 A" c16_exp [4:0] $end
$var wire 1 B" b_sign_fp $end
$var wire 24 C" b_mantissa [23:0] $end
$var wire 1 D" b_is_zero $end
$var wire 1 E" b_is_nan $end
$var wire 1 F" b_is_inf $end
$var wire 8 G" b_exp_fp [7:0] $end
$var wire 1 H" b32_sign $end
$var wire 24 I" b32_mantissa [23:0] $end
$var wire 23 J" b32_man [22:0] $end
$var wire 8 K" b32_exp_adj [7:0] $end
$var wire 8 L" b32_exp [7:0] $end
$var wire 1 M" b16_sign $end
$var wire 11 N" b16_mraw [10:0] $end
$var wire 10 O" b16_man [9:0] $end
$var wire 8 P" b16_exp_fp32 [7:0] $end
$var wire 5 Q" b16_exp [4:0] $end
$var wire 1 R" a_sign_fp $end
$var wire 24 S" a_mantissa [23:0] $end
$var wire 1 T" a_is_zero $end
$var wire 1 U" a_is_nan $end
$var wire 1 V" a_is_inf $end
$var wire 8 W" a_exp_fp [7:0] $end
$var wire 1 X" a32_sign $end
$var wire 24 Y" a32_mantissa [23:0] $end
$var wire 23 Z" a32_man [22:0] $end
$var wire 8 [" a32_exp_adj [7:0] $end
$var wire 8 \" a32_exp [7:0] $end
$var wire 1 ]" a16_sign $end
$var wire 11 ^" a16_mraw [10:0] $end
$var wire 10 _" a16_man [9:0] $end
$var wire 8 `" a16_exp_fp32 [7:0] $end
$var wire 5 a" a16_exp [4:0] $end
$var reg 32 b" acc_out [31:0] $end
$var reg 32 c" acc_reg [31:0] $end
$var reg 9 d" align_exp_fp [8:0] $end
$var reg 50 e" c_aligned_fp [49:0] $end
$var reg 1 % inexact $end
$var reg 6 f" lzd_fp [5:0] $end
$var reg 1 $ overflow $end
$var reg 50 g" product_aligned_fp [49:0] $end
$var reg 32 h" result [31:0] $end
$var reg 1 i" s1_acc_en $end
$var reg 8 j" s1_c_exp_fp [7:0] $end
$var reg 24 k" s1_c_mantissa_fp [23:0] $end
$var reg 1 l" s1_c_sign_fp $end
$var reg 9 m" s1_exp_sum_fp [8:0] $end
$var reg 1 n" s1_inf_fp $end
$var reg 1 o" s1_inf_sign_fp $end
$var reg 3 p" s1_mode [2:0] $end
$var reg 1 q" s1_nan_fp $end
$var reg 1 r" s1_prod_zero_fp $end
$var reg 48 s" s1_product_fp [47:0] $end
$var reg 1 t" s1_product_sign_fp $end
$var reg 1 u" s1_valid $end
$var reg 1 v" s2_acc_en $end
$var reg 1 w" s2_c_sign_fp $end
$var reg 50 x" s2_carry_fp [49:0] $end
$var reg 1 y" s2_eff_sub_fp $end
$var reg 9 z" s2_exp_fp [8:0] $end
$var reg 1 {" s2_inf_fp $end
$var reg 1 |" s2_inf_sign_fp $end
$var reg 3 }" s2_mode [2:0] $end
$var reg 1 ~" s2_nan_fp $end
$var reg 1 !# s2_product_sign_fp $end
$var reg 50 "# s2_sum_fp [49:0] $end
$var reg 1 ## s2_valid $end
$var reg 1 " underflow $end
$var reg 1 ! valid_out $end
$var integer 32 $# i [31:0] $end
$var integer 32 %# k [31:0] $end
$scope begin fp8_csa[0] $end
$var wire 10 &# fp8_csa_b [9:0] $end
$var wire 10 '# fp8_cin [9:0] $end
$var parameter 2 (# gi $end
$upscope $end
$scope begin fp8_csa[1] $end
$var wire 10 )# fp8_csa_b [9:0] $end
$var wire 10 *# fp8_cin [9:0] $end
$var parameter 2 +# gi $end
$upscope $end
$scope begin fp8_csa[2] $end
$var wire 10 ,# fp8_csa_b [9:0] $end
$var wire 10 -# fp8_cin [9:0] $end
$var parameter 3 .# gi $end
$upscope $end
$scope begin fp8_csa[3] $end
$var wire 10 /# fp8_csa_b [9:0] $end
$var wire 10 0# fp8_cin [9:0] $end
$var parameter 3 1# gi $end
$upscope $end
$scope begin fp8_ext[0] $end
$var parameter 2 2# gi $end
$upscope $end
$scope begin fp8_ext[1] $end
$var parameter 2 3# gi $end
$upscope $end
$scope begin fp8_ext[2] $end
$var parameter 3 4# gi $end
$upscope $end
$scope begin fp8_ext[3] $end
$var parameter 3 5# gi $end
$upscope $end
$scope begin fp8_norm[0] $end
$var wire 1 6# fp8_is_ov $end
$var wire 1 7# fp8_is_uf $end
$var wire 1 8# fp8_rup $end
$var wire 1 9# fp8_sub_borrow $end
$var wire 3 :# fp8_trunc [2:0] $end
$var wire 1 ;# fp8_s $end
$var wire 1 <# fp8_rsign $end
$var wire 4 =# fp8_rnd [3:0] $end
$var wire 11 ># fp8_raw [10:0] $end
$var wire 1 ?# fp8_r $end
$var wire 11 @# fp8_norm_m [10:0] $end
$var wire 6 A# fp8_nexp_s [5:0] $end
$var wire 5 B# fp8_nexp [4:0] $end
$var wire 11 C# fp8_mag [10:0] $end
$var wire 1 D# fp8_g $end
$var wire 3 E# fp8_fman [2:0] $end
$var wire 5 F# fp8_fexp [4:0] $end
$var parameter 2 G# gi $end
$var reg 4 H# fp8_lzd [3:0] $end
$var integer 32 I# j [31:0] $end
$upscope $end
$scope begin fp8_norm[1] $end
$var wire 1 J# fp8_is_ov $end
$var wire 1 K# fp8_is_uf $end
$var wire 1 L# fp8_rup $end
$var wire 1 M# fp8_sub_borrow $end
$var wire 3 N# fp8_trunc [2:0] $end
$var wire 1 O# fp8_s $end
$var wire 1 P# fp8_rsign $end
$var wire 4 Q# fp8_rnd [3:0] $end
$var wire 11 R# fp8_raw [10:0] $end
$var wire 1 S# fp8_r $end
$var wire 11 T# fp8_norm_m [10:0] $end
$var wire 6 U# fp8_nexp_s [5:0] $end
$var wire 5 V# fp8_nexp [4:0] $end
$var wire 11 W# fp8_mag [10:0] $end
$var wire 1 X# fp8_g $end
$var wire 3 Y# fp8_fman [2:0] $end
$var wire 5 Z# fp8_fexp [4:0] $end
$var parameter 2 [# gi $end
$var reg 4 \# fp8_lzd [3:0] $end
$var integer 32 ]# j [31:0] $end
$upscope $end
$scope begin fp8_norm[2] $end
$var wire 1 ^# fp8_is_ov $end
$var wire 1 _# fp8_is_uf $end
$var wire 1 `# fp8_rup $end
$var wire 1 a# fp8_sub_borrow $end
$var wire 3 b# fp8_trunc [2:0] $end
$var wire 1 c# fp8_s $end
$var wire 1 d# fp8_rsign $end
$var wire 4 e# fp8_rnd [3:0] $end
$var wire 11 f# fp8_raw [10:0] $end
$var wire 1 g# fp8_r $end
$var wire 11 h# fp8_norm_m [10:0] $end
$var wire 6 i# fp8_nexp_s [5:0] $end
$var wire 5 j# fp8_nexp [4:0] $end
$var wire 11 k# fp8_mag [10:0] $end
$var wire 1 l# fp8_g $end
$var wire 3 m# fp8_fman [2:0] $end
$var wire 5 n# fp8_fexp [4:0] $end
$var parameter 3 o# gi $end
$var reg 4 p# fp8_lzd [3:0] $end
$var integer 32 q# j [31:0] $end
$upscope $end
$scope begin fp8_norm[3] $end
$var wire 1 r# fp8_is_ov $end
$var wire 1 s# fp8_is_uf $end
$var wire 1 t# fp8_rup $end
$var wire 1 u# fp8_sub_borrow $end
$var wire 3 v# fp8_trunc [2:0] $end
$var wire 1 w# fp8_s $end
$var wire 1 x# fp8_rsign $end
$var wire 4 y# fp8_rnd [3:0] $end
$var wire 11 z# fp8_raw [10:0] $end
$var wire 1 {# fp8_r $end
$var wire 11 |# fp8_norm_m [10:0] $end
$var wire 6 }# fp8_nexp_s [5:0] $end
$var wire 5 ~# fp8_nexp [4:0] $end
$var wire 11 !$ fp8_mag [10:0] $end
$var wire 1 "$ fp8_g $end
$var wire 3 #$ fp8_fman [2:0] $end
$var wire 5 $$ fp8_fexp [4:0] $end
$var parameter 3 %$ gi $end
$var reg 4 &$ fp8_lzd [3:0] $end
$var integer 32 '$ j [31:0] $end
$upscope $end
$scope begin fp8_align_block $end
$var reg 6 ($ fp8_exp_diff [5:0] $end
$upscope $end
$upscope $end
$scope task apply_input $end
$var reg 32 )$ a_val [31:0] $end
$var reg 1 *$ ae $end
$var reg 32 +$ ai [31:0] $end
$var reg 32 ,$ b_val [31:0] $end
$var reg 32 -$ c_val [31:0] $end
$var reg 3 .$ m [2:0] $end
$upscope $end
$scope task check_result $end
$var reg 32 /$ expected [31:0] $end
$var reg 256 0$ test_name [255:0] $end
$upscope $end
$scope task wait_result $end
$upscope $end
$upscope $end
$enddefinitions $end
$comment Show the parameter values. $end
$dumpall
b11 %$
b10 o#
b1 [#
b0 G#
b11 5#
b10 4#
b1 3#
b0 2#
b11 1#
b10 .#
b1 +#
b0 (#
b0 2
b1000000000000000000000000000000 1
b1000000010000000000000000000000 0
b1000001001000000000000000000000 /
b111111100000000000000000000000 .
b1000000100000000000000000000000 -
b0 ,
b100000000000000 +
b100001000000000 *
b100100100000000 )
b11110000000000 (
b100010000000000 '
$end
#0
$dumpvars
bx 0$
bx /$
bx .$
bx -$
bx ,$
bx +$
x*$
bx )$
b0 ($
b1011 '$
b1011 &$
b10111 $$
b0 #$
0"$
b0 !$
b10111 ~#
b110111 }#
b0 |#
0{#
b0 z#
b0 y#
0x#
0w#
b0 v#
0u#
0t#
0s#
0r#
b1011 q#
b1011 p#
b10111 n#
b0 m#
0l#
b0 k#
b10111 j#
b110111 i#
b0 h#
0g#
b0 f#
b0 e#
0d#
0c#
b0 b#
0a#
0`#
0_#
0^#
b1011 ]#
b1011 \#
b10111 Z#
b0 Y#
0X#
b0 W#
b10111 V#
b110111 U#
b0 T#
0S#
b0 R#
b0 Q#
0P#
0O#
b0 N#
0M#
0L#
0K#
0J#
b1011 I#
b1011 H#
b10111 F#
b0 E#
0D#
b0 C#
b10111 B#
b110111 A#
b0 @#
0?#
b0 >#
b0 =#
0<#
0;#
b0 :#
09#
08#
07#
06#
b0 0#
b0 /#
b0 -#
b0 ,#
b0 *#
b0 )#
b0 '#
b0 &#
b110011 %#
b100 $#
0##
b0 "#
0!#
0~"
b0 }"
0|"
0{"
b0 z"
0y"
b0 x"
0w"
0v"
0u"
0t"
b0 s"
0r"
0q"
b0 p"
0o"
0n"
b0 m"
0l"
b0 k"
b0 j"
0i"
b0 h"
b0 g"
b110011 f"
b0 e"
b0 d"
b0 c"
b0 b"
b0 a"
b1110000 `"
b0 _"
b0 ^"
0]"
b0 \"
b0 ["
b0 Z"
b0 Y"
0X"
b0 W"
0V"
0U"
1T"
b0 S"
0R"
b0 Q"
b1110000 P"
b0 O"
b0 N"
0M"
b0 L"
b0 K"
b0 J"
b0 I"
0H"
b0 G"
0F"
0E"
1D"
b0 C"
0B"
b0 A"
b1110000 @"
b0 ?"
b0 >"
0="
b0 <"
b0 ;"
b0 :"
b0 9"
08"
b0 7"
b0 6"
05"
b0 4"
b0 3"
02"
01"
10"
b0 /"
0."
b0 -"
b0 ,"
b0 +"
b0 *"
b0 )"
b111001111 ("
b0 '"
b101011111 &"
b0 %"
b0 $"
0#"
0""
0!"
0~
0}
0|
1{
0z
0y
b0 x
b111001111 w
b1111001111 v
b0 u
b0 t
0s
b0 r
0q
0p
b0 o
0n
0m
0l
0k
0j
b0 i
0h
0g
0f
0e
0d
0c
0b
0a
b0 `
1_
0^
0]
0\
1[
1Z
0Y
0X
0W
1V
0U
0T
0S
1R
0Q
0P
0O
1N
0M
0L
0K
b0 J
1I
0H
0G
0F
1E
0D
0C
0B
b0 A
b0 @
b0 ?
b0 >
b0 =
b0 <
0;
0:
b0 9
08
b0 7
06
b0 5
b0 4
b0 3
b0 &
0%
0$
b0 #
0"
0!
$end
#5000
b100 $#
18
#10000
08
#15000
b100 $#
18
#20000
08
#25000
b100 $#
18
#30000
08
#35000
b100 $#
18
#40000
08
#45000
b11001 ($
b110000001 d"
1r"
b110000001 )"
b110000001 m"
b100 $#
1:
18
#50000
08
#55000
b10000 $$
b10000 n#
b10000 Z#
b10000 F#
b11100000 &"
b101010000 ("
b10000 ~#
b10000 j#
b10000 V#
b10000 B#
b101010000 w
b10000 }#
b10000 i#
b10000 U#
b10000 A#
b101010000 v
b110000001 z"
b100 $#
18
#60000
08
#65000
b100 $#
b0 +$
0*$
b0 -$
b111111100000000000000000000000 ,$
b111111100000000000000000000000 )$
b0 .$
18
#70000
08
#75000
b100000000000000000000000 C"
b100000000000000000000000 S"
b100000000000000000000000 I"
b100000000000000000000000 Y"
0D"
b1111111 G"
0T"
b1111111 W"
0R
b1111111 K"
0I
b1111111 ["
b1111111 L"
b1111111 \"
1;
b111111100000000000000000000000 4
b111111100000000000000000000000 @
b111111100000000000000000000000 3
b111111100000000000000000000000 ?
b100 $#
18
#80000
08
#85000
b1000000000000000000000000000000000000000000000000 `
b111 ($
b1111111 d"
b1000000000000000000000000000000000000000000000000 ,"
b1000000000000000000000000000000000000000000000000 g"
0r"
b10000000000000000000000000000000000000000000000 s"
b1111111 )"
b1111111 m"
1u"
0;
b100 $#
18
#90000
08
#95000
b110 #$
0c
b11110000000000 %"
b110 y#
b110 v#
1w#
b1000 $$
0r#
b11100001000 |#
b1 &$
b1011 '$
b111111100000000000000000000000 $"
0b
b100000000000000000000000000000000000000000000000000 u
b10 f"
b110011 %#
b1111 &"
b1111111 ("
b1000 ~#
0s#
b1110000100 !$
b1000000000000000000000000000000000000000000000000 x
b1111111 w
0u"
b1000 }#
b1110000100 z#
b1000000000000000000000000000000000000000000000000 t
b1000000000000000000000000000000000000000000000000 "#
b1111111 v
b1111111 z"
1##
b100 $#
18
#100000
08
#105000
b111111100000000000000000000000 #
b111111100000000000000000000000 h"
1!
0##
b100 $#
18
#110000
08
#115000
0!
b100 $#
b1000000100000000000000000000000 -$
b1000000010000000000000000000000 ,$
b1000000000000000000000000000000 )$
b1 =
b1 >
b1000110010100000011001100110010001110100010000000110001001010100011000100101011001100000011110100110001 0$
b111111100000000000000000000000 /$
18
#120000
08
#125000
b100000000000000000000000 /"
b100000000000000000000000 ;"
00"
b10000001 3"
b110000000000000000000000 C"
0_
b10000001 <"
b10000000 G"
b110000000000000000000000 I"
b10000000 W"
0Z
b10000001 7"
b10000000 K"
b10000000 ["
b10000001 :"
b1000000100000000000000000000000 4"
b10000000 L"
b10000000000000000000000 J"
b10000000 \"
1;
b1000000100000000000000000000000 5
b1000000100000000000000000000000 A
b1000000010000000000000000000000 4
b1000000010000000000000000000000 @
b1000000000000000000000000000000 3
b1000000000000000000000000000000 ?
b100 $#
18
#130000
08
#135000
b10000000000000000000000000000000000000000000000000 *"
b100000000000000000000000000000000000000000000000 `
b1111111111 ,#
b10000000 /#
b1000000000000000000000000000000000000000000000000 +"
b1 -#
b1 ($
b10000001 d"
b1000000000000000000000000000000000000000000000000 e"
b1100000000000000000000000000000000000000000000000 ,"
b1100000000000000000000000000000000000000000000000 g"
b100000000000000000000000 k"
b11000000000000000000000000000000000000000000000 s"
b10000001 j"
b0 )"
b10000001 m"
1u"
0;
b100 $#
18
#140000
08
#145000
b1000001001000000000000000000000 $"
b100100100000000 %"
b100 #$
b1000000000000000000000 '"
b100 y#
b100 v#
b1001 $$
0w#
b1011 '$
b10 &$
0d#
b11000 n#
0^#
b0 h#
b1011 p#
b1011 q#
b1000000000000000000000 r
b1000000000000000000000 o
b110011 %#
b1 f"
b10010 &"
b10000010 ("
b1001 ~#
b11000000000 |#
b110000000 !$
0a#
b11000 j#
0_#
b0 k#
b101000000000000000000000000000000000000000000000000 u
b10100000000000000000000000000000000000000000000000 x
b10000010 w
b1001 }#
b110000000 z#
b111000 i#
b10000000000 f#
b10000000000000000000000000000000000000000000000000 x"
b10100000000000000000000000000000000000000000000000 t
b100000000000000000000000000000000000000000000000 "#
b10000010 v
b10000001 z"
1##
0u"
b100 $#
18
#150000
08
#155000
0##
b1000001001000000000000000000000 #
b1000001001000000000000000000000 h"
1!
b100 $#
18
#160000
08
#165000
0!
b100 $#
b0 -$
b11110000000000 ,$
b11110000000000 )$
b1 .$
b10 =
b10 >
b100011001010000001100110011001000111010001000000011001000101010001100110010101100110100001111010011000100110000 0$
b1000001001000000000000000000000 /$
18
#170000
08
#175000
b0 ;"
b10000000000 N"
b10000000000 ^"
1_
b0 <"
b11110000000000 I"
b11110000000000 Y"
10"
1Z
b0 7"
1O
b1 K"
0N
b1111111 P"
b1 ["
1F
0E
b1111111 `"
b0 /"
b1110000 3"
0T"
0D"
b100000000000000000000000 S"
b100000000000000000000000 C"
b1111111 W"
b1111111 G"
b0 :"
b0 4"
b0 L"
b11110000000000 J"
b1111 Q"
b0 \"
b11110000000000 Z"
b1111 a"
0[
1n
1;
b0 5
b0 A
b11110000000000 4
b11110000000000 @
b11110000000000 3
b11110000000000 ?
0{
1}
b1 9
b1 i
b100 $#
18
#180000
08
#185000
b0 *"
b1000000000000000000000000000000000000000000000000 `
b0 ,#
b0 /#
b0 +"
b0 -#
b11001 ($
b1111111 d"
b0 e"
b1000000000000000000000000000000000000000000000000 ,"
b1000000000000000000000000000000000000000000000000 g"
b0 k"
b10000000000000000000000000000000000000000000000 s"
b1110000 j"
b1111 )"
b1111111 m"
b1 p"
1u"
0;
b100 $#
18
#190000
08
#195000
b111111100000000000000000000000 $"
b11110000000000 %"
b1 Y#
b0 #$
b0 '"
b1 Q#
b1 N#
b10000 $$
b0 y#
b0 v#
b1011 '$
b1011 &$
b10000 n#
b1000 Z#
0J#
b10010000000 T#
b1 \#
b1011 ]#
b0 r
b0 o
b110011 %#
b10 f"
b1111 &"
b1111111 ("
b10000 ~#
b0 |#
b0 !$
b10000 j#
b1000 V#
0K#
b1001000000 W#
b100000000000000000000000000000000000000000000000000 u
b1000000000000000000000000000000000000000000000000 x
b1111111 w
0u"
b10000 }#
b0 z#
b10000 i#
b0 f#
b1000 U#
b1001000000 R#
b0 x"
b1000000000000000000000000000000000000000000000000 t
b1000000000000000000000000000000000000000000000000 "#
b1111111 v
b1111111 z"
1|
b1 }"
1##
b100 $#
18
#200000
08
#205000
b11110000000000 #
b11110000000000 h"
1!
0##
b100 $#
18
#210000
08
#215000
0!
b100 $#
b100010000000000 -$
b100001000000000 ,$
b100000000000000 )$
b11 =
b11 >
b1000110010100000011000100110110001110100010000000110001001010100011000100101011001100000011110100110001 0$
b11110000000000 /$
18
#220000
08
#225000
b100000000000000000000000 /"
00"
b10000000000 >"
b100010000000000 ;"
b1 <"
b110000000000000000000000 C"
b10000001 3"
0_
1\
b10000000 G"
b11000000000 N"
b10000000 W"
0Z
1W
0V
b10000001 @"
b100010000000000 6"
b100001000000000 I"
b10000000 P"
b100000000000000 Y"
b10000000 `"
b100010000000000 9"
b10001 A"
b100010000000000 4"
b100001000000000 J"
b10000 Q"
b1000000000 O"
b100000000000000 Z"
b10000 a"
1;
b100010000000000 5
b100010000000000 A
b100001000000000 4
b100001000000000 @
b100000000000000 3
b100000000000000 ?
b100 $#
18
#230000
08
#235000
b10000000000000000000000000000000000000000000000000 *"
b100000000000000000000000000000000000000000000000 `
b11000000 )#
b1000000000000000000000000000000000000000000000000 +"
b11001 ($
b10000001 d"
b1000000000000000000000000000000000000000000000000 e"
b1100000000000000000000000000000000000000000000000 ,"
b1100000000000000000000000000000000000000000000000 g"
b100000000000000000000000 k"
b11000000000000000000000000000000000000000000000 s"
b10000001 j"
b0 )"
b10000001 m"
1u"
0;
b100 $#
18
#240000
08
#245000
b1000001001000000000000000000000 $"
b100100100000000 %"
b0 Y#
b1000000000000000000000 '"
b1010 Z#
b0 Q#
b0 N#
b1011 ]#
b1 \#
b1000000000000000000000 r
b1000000000000000000000 o
b110011 %#
b1 f"
b10010 &"
b10000010 ("
b1010 V#
b10000000000 T#
b1000000000 W#
b101000000000000000000000000000000000000000000000000 u
b10100000000000000000000000000000000000000000000000 x
b10000010 w
b1010 U#
b1000000000 R#
b10000000000000000000000000000000000000000000000000 x"
b10100000000000000000000000000000000000000000000000 t
b100000000000000000000000000000000000000000000000 "#
b10000010 v
b10000001 z"
1##
0u"
b100 $#
18
#250000
08
#255000
0##
b100100100000000 #
b100100100000000 h"
1!
b100 $#
18
#260000
08
#265000
0!
b100 $#
b100 =
b100 >
b100011001010000001100010011011000111010001000000011001000101010001100110010101100110100001111010011000100110000 0$
b100100100000000 /$
18
#270000
08
#275000
16
b100 $#
18
#280000
08
#285000
1i"
06
b100 $#
18
#290000
08
#295000
0i"
1v"
b100 $#
18
#300000
08
#305000
0v"
b100 $#
1*$
b0 -$
b11110000000000 ,$
b11110000000000 )$
b100 .$
18
#310000
08
#315000
b0 >"
10"
b0 <"
b100000000000000000000000 C"
1_
0\
b0 ;"
b1111111 G"
b10000000000 N"
b1111111 W"
b0 /"
b0 3"
1Z
0W
1V
b1110000 @"
b0 6"
b11110000000000 I"
b1111111 P"
b11110000000000 Y"
b1111111 `"
1[
b0 9"
b0 A"
b0 4"
b11110000000000 J"
b1111 Q"
b0 O"
b11110000000000 Z"
b1111 a"
1g
1;
16
b0 5
b0 A
b11110000000000 4
b11110000000000 @
b11110000000000 3
b11110000000000 ?
0}
1!"
b100 9
b100 i
b100 $#
18
#320000
08
#325000
b0 *"
b1000000000000000000000000000000000000000000000000 `
b0 )#
b0 +"
b11001 ($
b1111111 d"
b0 e"
b1000000000000000000000000000000000000000000000000 ,"
b1000000000000000000000000000000000000000000000000 g"
b0 k"
b10000000000000000000000000000000000000000000000 s"
b0 j"
b1111111 )"
b1111111 m"
1i"
b100 p"
1u"
06
0;
b100 $#
18
#330000
08
#335000
b111111100000000000000000000000 $"
b11110000000000 %"
b1 Y#
b0 '"
b1000 Z#
b1 Q#
b1 N#
b1011 ]#
b1 \#
b0 r
b0 o
b110011 %#
b10 f"
b1111 &"
b1111111 ("
1h
b1000 V#
b10010000000 T#
b1001000000 W#
b100000000000000000000000000000000000000000000000000 u
b1000000000000000000000000000000000000000000000000 x
b1111111 w
0i"
0u"
b1000 U#
b1001000000 R#
b0 x"
b1000000000000000000000000000000000000000000000000 t
b1000000000000000000000000000000000000000000000000 "#
b1111111 v
b1111111 z"
1v"
0|
b100 }"
1##
b100 $#
18
#340000
08
#345000
b100000000000000000000000 /"
b100000000000000000000000 ;"
00"
b1111111 3"
0_
b1111111 <"
b1111111 7"
b111111100000000000000000000000 4"
b111111100000000000000000000000 c"
b111111100000000000000000000000 #
b111111100000000000000000000000 h"
1!
0v"
0##
b100 $#
18
#350000
08
#355000
b10000000000000000000000000000000000000000000000000 *"
b0 `
b1000000000000000000000000000000000000000000000000 +"
b1000000000000000000000000000000000000000000000000 e"
b100000000000000000000000 k"
b0 )"
b1111111 j"
0!
b100 $#
b101 =
b101 >
b100000101100011011000110011000100110110001110100010000000110000001010110011000100101010001100010011110100110001 0$
b111111100000000000000000000000 /$
18
#360000
08
#365000
b1000000000000000000000000000000 $"
b100000000000000 %"
b10000 &"
b10000000 ("
b10000000 w
b110011 %#
b10000000 v
b1 f"
b100000000000000000000000000000000000000000000000000 u
b10000000000000000000000000000000000000000000000000 x
b10000000000000000000000000000000000000000000000000 x"
b10000000000000000000000000000000000000000000000000 t
b0 "#
16
b100 $#
18
#370000
08
#375000
b0 /"
b0 ;"
10"
b0 3"
1_
b0 <"
b0 7"
b0 4"
1i"
b0 c"
06
b100 $#
18
#380000
08
#385000
b0 *"
b1000000000000000000000000000000000000000000000000 `
b0 +"
b0 e"
1v"
b0 k"
b1111111 )"
b0 j"
0i"
b100 $#
18
#390000
08
#395000
b111111100000000000000000000000 $"
b11110000000000 %"
b1111 &"
b1111111 ("
b1111111 w
b110011 %#
b1111111 v
b10 f"
b100000000000000000000000000000000000000000000000000 u
b1000000000000000000000000000000000000000000000000 x
b0 x"
b1000000000000000000000000000000000000000000000000 t
b1000000000000000000000000000000000000000000000000 "#
0v"
b100 $#
b100001000000000 ,$
b100000000000000 )$
18
#400000
08
#405000
b110000000000000000000000 C"
b10000000 G"
b11000000000 N"
b10000000 W"
b100001000000000 I"
b10000000 P"
b100000000000000 Y"
b10000000 `"
b100001000000000 J"
b10000 Q"
b1000000000 O"
b100000000000000 Z"
b10000 a"
1;
16
b100001000000000 4
b100001000000000 @
b100000000000000 3
b100000000000000 ?
b100 $#
18
#410000
08
#415000
b1100000000000000000000000000000000000000000000000 `
b11001 ($
b10000001 d"
b1100000000000000000000000000000000000000000000000 ,"
b1100000000000000000000000000000000000000000000000 g"
b11000000000000000000000000000000000000000000000 s"
b10000001 )"
b10000001 m"
1i"
1u"
06
0;
b100 $#
18
#420000
08
