stage4_test.vcd
$date
	Thu Mar 12 12:02:18 2026
$end
$version
	Icarus Verilog
$end
$timescale
	1ps
$end
$scope module tb_fma_top_stage4 $end
$var wire 1 ! valid_out $end
$var wire 1 " underflow $end
$var wire 32 # result [31:0] $end
$var wire 1 $ overflow $end
$var wire 1 % inexact $end
$var wire 32 & acc_out [31:0] $end
$var parameter 32 ' FP16_FOUR $end
$var parameter 32 ( FP16_ONE $end
$var parameter 32 ) FP16_TEN $end
$var parameter 32 * FP16_THREE $end
$var parameter 32 + FP16_TWO $end
$var parameter 32 , FP16_ZERO $end
$var parameter 32 - FP32_FOUR $end
$var parameter 32 . FP32_ONE $end
$var parameter 32 / FP32_TEN $end
$var parameter 32 0 FP32_THREE $end
$var parameter 32 1 FP32_TWO $end
$var parameter 32 2 FP32_ZERO $end
$var parameter 8 3 FP8_ONE $end
$var parameter 8 4 FP8_TWO $end
$var parameter 8 5 FP8_ZERO $end
$var reg 32 6 A [31:0] $end
$var reg 32 7 B [31:0] $end
$var reg 32 8 C [31:0] $end
$var reg 1 9 acc_en $end
$var reg 32 : acc_in [31:0] $end
$var reg 1 ; clk $end
$var reg 3 < mode [2:0] $end
$var reg 1 = rst_n $end
$var reg 1 > valid_in $end
$var integer 32 ? fail_count [31:0] $end
$var integer 32 @ pass_count [31:0] $end
$var integer 32 A test_count [31:0] $end
$scope function pack_fp8 $end
$var reg 8 B v0 [7:0] $end
$var reg 8 C v1 [7:0] $end
$var reg 8 D v2 [7:0] $end
$var reg 8 E v3 [7:0] $end
$upscope $end
$scope module dut $end
$var wire 32 F A [31:0] $end
$var wire 32 G B [31:0] $end
$var wire 32 H C [31:0] $end
$var wire 1 I a16_is_denorm $end
$var wire 1 J a16_is_inf $end
$var wire 1 K a16_is_nan $end
$var wire 1 L a16_is_zero $end
$var wire 1 M a32_is_denorm $end
$var wire 1 N a32_is_inf $end
$var wire 1 O a32_is_nan $end
$var wire 1 P a32_is_zero $end
$var wire 1 9 acc_en $end
$var wire 32 Q acc_in [31:0] $end
$var wire 1 R b16_is_denorm $end
$var wire 1 S b16_is_inf $end
$var wire 1 T b16_is_nan $end
$var wire 1 U b16_is_zero $end
$var wire 1 V b32_is_denorm $end
$var wire 1 W b32_is_inf $end
$var wire 1 X b32_is_nan $end
$var wire 1 Y b32_is_zero $end
$var wire 1 Z c16_is_denorm $end
$var wire 1 [ c16_is_inf $end
$var wire 1 \ c16_is_nan $end
$var wire 1 ] c16_is_zero $end
$var wire 1 ^ c32_is_denorm $end
$var wire 1 _ c32_is_inf $end
$var wire 1 ` c32_is_nan $end
$var wire 1 a c32_sel $end
$var wire 1 b c_eff_is_denorm $end
$var wire 1 c c_eff_is_inf $end
$var wire 1 d c_eff_is_nan $end
$var wire 1 e c_eff_is_zero $end
$var wire 1 ; clk $end
$var wire 50 f csa_sum_fp [49:0] $end
$var wire 1 g eff_sub_fp $end
$var wire 1 h fp16_ov $end
$var wire 1 i fp16_uf $end
$var wire 1 j fp32_ov $end
$var wire 1 k fp32_uf $end
$var wire 1 l inf_result_fp $end
$var wire 1 m int8_ov $end
$var wire 1 n int8_overflow_pos $end
$var wire 1 o is_acc $end
$var wire 1 p is_acc_out $end
$var wire 3 q mode [2:0] $end
$var wire 1 r nan_result_fp $end
$var wire 1 s product_sign_fp $end
$var wire 1 = rst_n $end
$var wire 1 t rup_fp $end
$var wire 1 u sub_borrow_fp $end
$var wire 1 v use_fp16_fields $end
$var wire 1 > valid_in $end
$var wire 23 w trunc_fp [22:0] $end
$var wire 1 x sbit_fp $end
$var wire 1 y rsign_fp $end
$var wire 24 z rnd_fp [23:0] $end
$var wire 1 { rbit_fp $end
$var wire 51 | raw_fp [50:0] $end
$var wire 51 } norm_man_fp [50:0] $end
$var wire 10 ~ nexp_fp_s [9:0] $end
$var wire 9 !" nexp_fp [8:0] $end
$var wire 51 "" mag_fp [50:0] $end
$var wire 1 #" is_int8_out $end
$var wire 1 $" is_int8 $end
$var wire 1 %" is_fp8_out $end
$var wire 1 &" is_fp8 $end
$var wire 1 '" is_fp32 $end
$var wire 1 (" is_fp16_out $end
$var wire 1 )" is_fp16 $end
$var wire 1 *" is_acc8 $end
$var wire 1 +" is_acc16 $end
$var wire 17 ," int8_sum [16:0] $end
$var wire 16 -" int8_result [15:0] $end
$var wire 16 ." int8_product [15:0] $end
$var wire 16 /" int8_c [15:0] $end
$var wire 8 0" int8_b [7:0] $end
$var wire 8 1" int8_a [7:0] $end
$var wire 1 2" inf_sign_fp $end
$var wire 1 3" gbit_fp $end
$var wire 32 4" fp32_res [31:0] $end
$var wire 16 5" fp16_res [15:0] $end
$var wire 9 6" fp16_eb [8:0] $end
$var wire 23 7" fman_fp [22:0] $end
$var wire 9 8" fexp_fp [8:0] $end
$var wire 10 9" exp_diff_fp [9:0] $end
$var wire 50 :" csa_carry_fp [49:0] $end
$var wire 50 ;" csa_b_fp [49:0] $end
$var wire 50 <" csa_a_fp [49:0] $end
$var wire 50 =" cin_fp [49:0] $end
$var wire 1 >" c_sign_fp $end
$var wire 24 ?" c_mantissa [23:0] $end
$var wire 1 @" c_is_zero $end
$var wire 1 A" c_is_nan $end
$var wire 1 B" c_is_inf $end
$var wire 8 C" c_exp_val [7:0] $end
$var wire 32 D" c_effective [31:0] $end
$var wire 1 E" c_eff_sign $end
$var wire 23 F" c_eff_man [22:0] $end
$var wire 8 G" c_eff_exp [7:0] $end
$var wire 1 H" c32_sign $end
$var wire 23 I" c32_man [22:0] $end
$var wire 8 J" c32_exp [7:0] $end
$var wire 24 K" c32_eff_mantissa [23:0] $end
$var wire 8 L" c32_eff_exp_adj [7:0] $end
$var wire 1 M" c16_sign $end
$var wire 11 N" c16_mraw [10:0] $end
$var wire 10 O" c16_man [9:0] $end
$var wire 8 P" c16_exp_fp32 [7:0] $end
$var wire 5 Q" c16_exp [4:0] $end
$var wire 1 R" b_sign_fp $end
$var wire 24 S" b_mantissa [23:0] $end
$var wire 1 T" b_is_zero $end
$var wire 1 U" b_is_nan $end
$var wire 1 V" b_is_inf $end
$var wire 8 W" b_exp_fp [7:0] $end
$var wire 1 X" b32_sign $end
$var wire 24 Y" b32_mantissa [23:0] $end
$var wire 23 Z" b32_man [22:0] $end
$var wire 8 [" b32_exp_adj [7:0] $end
$var wire 8 \" b32_exp [7:0] $end
$var wire 1 ]" b16_sign $end
$var wire 11 ^" b16_mraw [10:0] $end
$var wire 10 _" b16_man [9:0] $end
$var wire 8 `" b16_exp_fp32 [7:0] $end
$var wire 5 a" b16_exp [4:0] $end
$var wire 1 b" a_sign_fp $end
$var wire 24 c" a_mantissa [23:0] $end
$var wire 1 d" a_is_zero $end
$var wire 1 e" a_is_nan $end
$var wire 1 f" a_is_inf $end
$var wire 8 g" a_exp_fp [7:0] $end
$var wire 1 h" a32_sign $end
$var wire 24 i" a32_mantissa [23:0] $end
$var wire 23 j" a32_man [22:0] $end
$var wire 8 k" a32_exp_adj [7:0] $end
$var wire 8 l" a32_exp [7:0] $end
$var wire 1 m" a16_sign $end
$var wire 11 n" a16_mraw [10:0] $end
$var wire 10 o" a16_man [9:0] $end
$var wire 8 p" a16_exp_fp32 [7:0] $end
$var wire 5 q" a16_exp [4:0] $end
$var reg 32 r" acc_out [31:0] $end
$var reg 32 s" acc_reg [31:0] $end
$var reg 9 t" align_exp_fp [8:0] $end
$var reg 50 u" c_aligned_fp [49:0] $end
$var reg 1 % inexact $end
$var reg 6 v" lzd_fp [5:0] $end
$var reg 1 $ overflow $end
$var reg 50 w" product_aligned_fp [49:0] $end
$var reg 32 x" result [31:0] $end
$var reg 1 y" s1_acc_en $end
$var reg 8 z" s1_c_exp_fp [7:0] $end
$var reg 24 {" s1_c_mantissa_fp [23:0] $end
$var reg 1 |" s1_c_sign_fp $end
$var reg 9 }" s1_exp_sum_fp [8:0] $end
$var reg 1 ~" s1_inf_fp $end
$var reg 1 !# s1_inf_sign_fp $end
$var reg 1 "# s1_int8_ov $end
$var reg 16 ## s1_int8_result [15:0] $end
$var reg 3 $# s1_mode [2:0] $end
$var reg 1 %# s1_nan_fp $end
$var reg 1 &# s1_prod_zero_fp $end
$var reg 48 '# s1_product_fp [47:0] $end
$var reg 1 (# s1_product_sign_fp $end
$var reg 1 )# s1_valid $end
$var reg 1 *# s2_acc_en $end
$var reg 1 +# s2_c_sign_fp $end
$var reg 50 ,# s2_carry_fp [49:0] $end
$var reg 1 -# s2_eff_sub_fp $end
$var reg 9 .# s2_exp_fp [8:0] $end
$var reg 1 /# s2_inf_fp $end
$var reg 1 0# s2_inf_sign_fp $end
$var reg 1 1# s2_int8_ov $end
$var reg 16 2# s2_int8_result [15:0] $end
$var reg 3 3# s2_mode [2:0] $end
$var reg 1 4# s2_nan_fp $end
$var reg 1 5# s2_product_sign_fp $end
$var reg 50 6# s2_sum_fp [49:0] $end
$var reg 1 7# s2_valid $end
$var reg 1 " underflow $end
$var reg 1 ! valid_out $end
$var integer 32 8# i [31:0] $end
$var integer 32 9# k [31:0] $end
$scope begin fp8_csa[0] $end
$var wire 10 :# fp8_csa_b [9:0] $end
$var wire 10 ;# fp8_cin [9:0] $end
$var parameter 2 <# gi $end
$upscope $end
$scope begin fp8_csa[1] $end
$var wire 10 =# fp8_csa_b [9:0] $end
$var wire 10 ># fp8_cin [9:0] $end
$var parameter 2 ?# gi $end
$upscope $end
$scope begin fp8_csa[2] $end
$var wire 10 @# fp8_csa_b [9:0] $end
$var wire 10 A# fp8_cin [9:0] $end
$var parameter 3 B# gi $end
$upscope $end
$scope begin fp8_csa[3] $end
$var wire 10 C# fp8_csa_b [9:0] $end
$var wire 10 D# fp8_cin [9:0] $end
$var parameter 3 E# gi $end
$upscope $end
$scope begin fp8_ext[0] $end
$var parameter 2 F# gi $end
$upscope $end
$scope begin fp8_ext[1] $end
$var parameter 2 G# gi $end
$upscope $end
$scope begin fp8_ext[2] $end
$var parameter 3 H# gi $end
$upscope $end
$scope begin fp8_ext[3] $end
$var parameter 3 I# gi $end
$upscope $end
$scope begin fp8_norm[0] $end
$var wire 1 J# fp8_is_ov $end
$var wire 1 K# fp8_is_uf $end
$var wire 1 L# fp8_rup $end
$var wire 1 M# fp8_sub_borrow $end
$var wire 3 N# fp8_trunc [2:0] $end
$var wire 1 O# fp8_s $end
$var wire 1 P# fp8_rsign $end
$var wire 4 Q# fp8_rnd [3:0] $end
$var wire 11 R# fp8_raw [10:0] $end
$var wire 1 S# fp8_r $end
$var wire 11 T# fp8_norm_m [10:0] $end
$var wire 6 U# fp8_nexp_s [5:0] $end
$var wire 5 V# fp8_nexp [4:0] $end
$var wire 11 W# fp8_mag [10:0] $end
$var wire 1 X# fp8_g $end
$var wire 3 Y# fp8_fman [2:0] $end
$var wire 5 Z# fp8_fexp [4:0] $end
$var parameter 2 [# gi $end
$var reg 4 \# fp8_lzd [3:0] $end
$var integer 32 ]# j [31:0] $end
$upscope $end
$scope begin fp8_norm[1] $end
$var wire 1 ^# fp8_is_ov $end
$var wire 1 _# fp8_is_uf $end
$var wire 1 `# fp8_rup $end
$var wire 1 a# fp8_sub_borrow $end
$var wire 3 b# fp8_trunc [2:0] $end
$var wire 1 c# fp8_s $end
$var wire 1 d# fp8_rsign $end
$var wire 4 e# fp8_rnd [3:0] $end
$var wire 11 f# fp8_raw [10:0] $end
$var wire 1 g# fp8_r $end
$var wire 11 h# fp8_norm_m [10:0] $end
$var wire 6 i# fp8_nexp_s [5:0] $end
$var wire 5 j# fp8_nexp [4:0] $end
$var wire 11 k# fp8_mag [10:0] $end
$var wire 1 l# fp8_g $end
$var wire 3 m# fp8_fman [2:0] $end
$var wire 5 n# fp8_fexp [4:0] $end
$var parameter 2 o# gi $end
$var reg 4 p# fp8_lzd [3:0] $end
$var integer 32 q# j [31:0] $end
$upscope $end
$scope begin fp8_norm[2] $end
$var wire 1 r# fp8_is_ov $end
$var wire 1 s# fp8_is_uf $end
$var wire 1 t# fp8_rup $end
$var wire 1 u# fp8_sub_borrow $end
$var wire 3 v# fp8_trunc [2:0] $end
$var wire 1 w# fp8_s $end
$var wire 1 x# fp8_rsign $end
$var wire 4 y# fp8_rnd [3:0] $end
$var wire 11 z# fp8_raw [10:0] $end
$var wire 1 {# fp8_r $end
$var wire 11 |# fp8_norm_m [10:0] $end
$var wire 6 }# fp8_nexp_s [5:0] $end
$var wire 5 ~# fp8_nexp [4:0] $end
$var wire 11 !$ fp8_mag [10:0] $end
$var wire 1 "$ fp8_g $end
$var wire 3 #$ fp8_fman [2:0] $end
$var wire 5 $$ fp8_fexp [4:0] $end
$var parameter 3 %$ gi $end
$var reg 4 &$ fp8_lzd [3:0] $end
$var integer 32 '$ j [31:0] $end
$upscope $end
$scope begin fp8_norm[3] $end
$var wire 1 ($ fp8_is_ov $end
$var wire 1 )$ fp8_is_uf $end
$var wire 1 *$ fp8_rup $end
$var wire 1 +$ fp8_sub_borrow $end
$var wire 3 ,$ fp8_trunc [2:0] $end
$var wire 1 -$ fp8_s $end
$var wire 1 .$ fp8_rsign $end
$var wire 4 /$ fp8_rnd [3:0] $end
$var wire 11 0$ fp8_raw [10:0] $end
$var wire 1 1$ fp8_r $end
$var wire 11 2$ fp8_norm_m [10:0] $end
$var wire 6 3$ fp8_nexp_s [5:0] $end
$var wire 5 4$ fp8_nexp [4:0] $end
$var wire 11 5$ fp8_mag [10:0] $end
$var wire 1 6$ fp8_g $end
$var wire 3 7$ fp8_fman [2:0] $end
$var wire 5 8$ fp8_fexp [4:0] $end
$var parameter 3 9$ gi $end
$var reg 4 :$ fp8_lzd [3:0] $end
$var integer 32 ;$ j [31:0] $end
$upscope $end
$scope begin fp8_align_block $end
$var reg 6 <$ fp8_exp_diff [5:0] $end
$upscope $end
$upscope $end
$scope task apply_input $end
$var reg 32 =$ a_val [31:0] $end
$var reg 1 >$ ae $end
$var reg 32 ?$ ai [31:0] $end
$var reg 32 @$ b_val [31:0] $end
$var reg 32 A$ c_val [31:0] $end
$var reg 3 B$ m [2:0] $end
$upscope $end
$scope task check_overflow $end
$var reg 1 C$ expected_ov $end
$var reg 256 D$ test_name [255:0] $end
$upscope $end
$scope task check_result $end
$var reg 32 E$ expected [31:0] $end
$var reg 256 F$ test_name [255:0] $end
$upscope $end
$scope task check_result_16 $end
$var reg 16 G$ expected [15:0] $end
$var reg 256 H$ test_name [255:0] $end
$upscope $end
$scope task wait_result $end
$upscope $end
$upscope $end
$enddefinitions $end
$comment Show the parameter values. $end
$dumpall
b11 9$
b10 %$
b1 o#
b0 [#
b11 I#
b10 H#
b1 G#
b0 F#
b11 E#
b10 B#
b1 ?#
b0 <#
b0 5
b1000000 4
b111000 3
b0 2
b1000000000000000000000000000000 1
b1000000010000000000000000000000 0
b1000001001000000000000000000000 /
b111111100000000000000000000000 .
b1000000100000000000000000000000 -
b0 ,
b100000000000000 +
b100001000000000 *
b100100100000000 )
b11110000000000 (
b100010000000000 '
$end
#0
$dumpvars
bx H$
bx G$
bx F$
bx E$
bx D$
xC$
bx B$
bx A$
bx @$
bx ?$
x>$
bx =$
b0 <$
b1011 ;$
b1011 :$
b10111 8$
b0 7$
06$
b0 5$
b10111 4$
b110111 3$
b0 2$
01$
b0 0$
b0 /$
0.$
0-$
b0 ,$
0+$
0*$
0)$
0($
b1011 '$
b1011 &$
b10111 $$
b0 #$
0"$
b0 !$
b10111 ~#
b110111 }#
b0 |#
0{#
b0 z#
b0 y#
0x#
0w#
b0 v#
0u#
0t#
0s#
0r#
b1011 q#
b1011 p#
b10111 n#
b0 m#
0l#
b0 k#
b10111 j#
b110111 i#
b0 h#
0g#
b0 f#
b0 e#
0d#
0c#
b0 b#
0a#
0`#
0_#
0^#
b1011 ]#
b1011 \#
b10111 Z#
b0 Y#
0X#
b0 W#
b10111 V#
b110111 U#
b0 T#
0S#
b0 R#
b0 Q#
0P#
0O#
b0 N#
0M#
0L#
0K#
0J#
b0 D#
b0 C#
b0 A#
b0 @#
b0 >#
b0 =#
b0 ;#
b0 :#
b110011 9#
b100 8#
07#
b0 6#
05#
04#
b0 3#
b0 2#
01#
00#
0/#
b0 .#
0-#
b0 ,#
0+#
0*#
0)#
0(#
b0 '#
0&#
0%#
b0 $#
b0 ##
0"#
0!#
0~"
b0 }"
0|"
b0 {"
b0 z"
0y"
b0 x"
b0 w"
b110011 v"
b0 u"
b0 t"
b0 s"
b0 r"
b0 q"
b1110000 p"
b0 o"
b0 n"
0m"
b0 l"
b0 k"
b0 j"
b0 i"
0h"
b0 g"
0f"
0e"
1d"
b0 c"
0b"
b0 a"
b1110000 `"
b0 _"
b0 ^"
0]"
b0 \"
b0 ["
b0 Z"
b0 Y"
0X"
b0 W"
0V"
0U"
1T"
b0 S"
0R"
b0 Q"
b1110000 P"
b0 O"
b0 N"
0M"
b0 L"
b0 K"
b0 J"
b0 I"
0H"
b0 G"
b0 F"
0E"
b0 D"
b0 C"
0B"
0A"
1@"
b0 ?"
0>"
b0 ="
b0 <"
b0 ;"
b0 :"
b0 9"
b111001111 8"
b0 7"
b101011111 6"
b0 5"
b0 4"
03"
02"
b0 1"
b0 0"
b0 /"
b0 ."
b0 -"
b0 ,"
0+"
0*"
0)"
0("
1'"
0&"
0%"
0$"
0#"
b0 ""
b111001111 !"
b1111001111 ~
b0 }
b0 |
0{
b0 z
0y
0x
b0 w
0v
0u
0t
0s
0r
b0 q
0p
0o
0n
0m
0l
0k
0j
0i
0h
0g
b0 f
1e
0d
0c
0b
1a
0`
0_
0^
1]
0\
0[
0Z
1Y
0X
0W
0V
1U
0T
0S
0R
b0 Q
1P
0O
0N
0M
1L
0K
0J
0I
b0 H
b0 G
b0 F
bx E
bx D
bx C
bx B
b0 A
b0 @
b0 ?
0>
0=
b0 <
0;
b0 :
09
b0 8
b0 7
b0 6
b0 &
0%
0$
b0 #
0"
0!
$end
#5000
b100 8#
1;
#10000
0;
#15000
b100 8#
1;
#20000
0;
#25000
b100 8#
1;
#30000
0;
#35000
b100 8#
1;
#40000
0;
#45000
b11001 <$
b110000001 t"
1&#
b110000001 9"
b110000001 }"
b100 8#
1=
1;
#50000
0;
#55000
b10000 8$
b10000 $$
b10000 n#
b10000 Z#
b11100000 6"
b101010000 8"
b10000 4$
b10000 ~#
b10000 j#
b10000 V#
b101010000 !"
b10000 3$
b10000 }#
b10000 i#
b10000 U#
b101010000 ~
b110000001 .#
b100 8#
1;
#60000
0;
#65000
b100 8#
b0 ?$
0>$
b0 A$
b111111100000000000000000000000 @$
b111111100000000000000000000000 =$
b0 B$
1;
#70000
0;
#75000
b100000000000000000000000 S"
b100000000000000000000000 c"
b100000000000000000000000 Y"
b100000000000000000000000 i"
0T"
b1111111 W"
0d"
b1111111 g"
0Y
b1111111 ["
0P
b1111111 k"
b1111111 \"
b1111111 l"
1>
b111111100000000000000000000000 7
b111111100000000000000000000000 G
b111111100000000000000000000000 6
b111111100000000000000000000000 F
b100 8#
1;
#80000
0;
#85000
b1000000000000000000000000000000000000000000000000 f
b111 <$
b1111111 t"
b1000000000000000000000000000000000000000000000000 <"
b1000000000000000000000000000000000000000000000000 w"
0&#
b10000000000000000000000000000000000000000000000 '#
b1111111 9"
b1111111 }"
1)#
0>
b100 8#
1;
#90000
0;
#95000
b110 7$
0i
b11110000000000 5"
b110 /$
b110 ,$
1-$
b1000 8$
0($
b11100001000 2$
b1 :$
b1011 ;$
b111111100000000000000000000000 4"
0h
b100000000000000000000000000000000000000000000000000 }
b10 v"
b110011 9#
b1111 6"
b1111111 8"
b1000 4$
0)$
b1110000100 5$
b1000000000000000000000000000000000000000000000000 ""
b1111111 !"
0)#
b1000 3$
b1110000100 0$
b1000000000000000000000000000000000000000000000000 |
b1000000000000000000000000000000000000000000000000 6#
b1111111 ~
b1111111 .#
17#
b100 8#
1;
#100000
0;
#105000
b111111100000000000000000000000 #
b111111100000000000000000000000 x"
1!
07#
b100 8#
1;
#110000
0;
#115000
0!
b100 8#
b1000000100000000000000000000000 A$
b1000000010000000000000000000000 @$
b1000000000000000000000000000000 =$
b1 @
b1 A
b1000110010100000011001100110010001110100010000000110001001010100011000100101011001100000011110100110001 F$
b111111100000000000000000000000 E$
1;
#120000
0;
#125000
b100000000000000000000000 ?"
b100000000000000000000000 K"
0@"
b10000001 C"
b110000000000000000000000 S"
0e
b10000001 L"
b10000000 W"
b110000000000000000000000 Y"
b10000000 g"
b10000001 G"
b10000000 ["
b10000000 k"
b10000001 J"
b1000000100000000000000000000000 D"
b10000000 \"
b10000000000000000000000 Z"
b10000000 l"
1>
b1000000100000000000000000000000 8
b1000000100000000000000000000000 H
b1000000010000000000000000000000 7
b1000000010000000000000000000000 G
b1000000000000000000000000000000 6
b1000000000000000000000000000000 F
b100 8#
1;
#130000
0;
#135000
b10000000000000000000000000000000000000000000000000 :"
b100000000000000000000000000000000000000000000000 f
b1111111111 @#
b10000000 C#
b1000000000000000000000000000000000000000000000000 ;"
b1 A#
b1 <$
b10000001 t"
b1000000000000000000000000000000000000000000000000 u"
b1100000000000000000000000000000000000000000000000 <"
b1100000000000000000000000000000000000000000000000 w"
b100000000000000000000000 {"
b11000000000000000000000000000000000000000000000 '#
b10000001 z"
b0 9"
b10000001 }"
1)#
0>
b100 8#
1;
#140000
0;
#145000
b1000001001000000000000000000000 4"
b100100100000000 5"
b100 7$
b1000000000000000000000 7"
b100 /$
b100 ,$
b1001 8$
0-$
b1011 ;$
b10 :$
0x#
b11000 $$
0r#
b0 |#
b1011 &$
b1011 '$
b1000000000000000000000 z
b1000000000000000000000 w
b110011 9#
b1 v"
b10010 6"
b10000010 8"
b1001 4$
b11000000000 2$
b110000000 5$
0u#
b11000 ~#
0s#
b0 !$
b101000000000000000000000000000000000000000000000000 }
b10100000000000000000000000000000000000000000000000 ""
b10000010 !"
b1001 3$
b110000000 0$
b111000 }#
b10000000000 z#
b10000000000000000000000000000000000000000000000000 ,#
b10100000000000000000000000000000000000000000000000 |
b100000000000000000000000000000000000000000000000 6#
b10000010 ~
b10000001 .#
17#
0)#
b100 8#
1;
#150000
0;
#155000
07#
b1000001001000000000000000000000 #
b1000001001000000000000000000000 x"
1!
b100 8#
1;
#160000
0;
#165000
0!
b100 8#
b0 A$
b11110000000000 @$
b11110000000000 =$
b1 B$
b10 @
b10 A
b100011001010000001100110011001000111010001000000011001000101010001100110010101100110100001111010011000100110000 F$
b1000001001000000000000000000000 E$
1;
#170000
0;
#175000
b0 K"
b10000000000 ^"
b10000000000 n"
1e
b0 L"
b11110000000000 Y"
b11110000000000 i"
1@"
b0 G"
1V
b1 ["
0U
b1111111 `"
b1 k"
1M
0L
b1111111 p"
b0 ?"
b1110000 C"
0d"
0T"
b100000000000000000000000 c"
b100000000000000000000000 S"
b1111111 g"
b1111111 W"
b0 J"
b0 D"
b0 \"
b11110000000000 Z"
b1111 a"
b0 l"
b11110000000000 j"
b1111 q"
0a
1v
1>
b0 8
b0 H
b11110000000000 7
b11110000000000 G
b11110000000000 6
b11110000000000 F
0'"
1)"
b1 <
b1 q
b100 8#
1;
#180000
0;
#185000
b0 :"
b1000000000000000000000000000000000000000000000000 f
b0 @#
b0 C#
b0 ;"
b0 A#
b11001 <$
b1111111 t"
b0 u"
b1000000000000000000000000000000000000000000000000 <"
b1000000000000000000000000000000000000000000000000 w"
b0 {"
b10000000000000000000000000000000000000000000000 '#
b1110000 z"
b1111 9"
b1111111 }"
b1 $#
1)#
0>
b100 8#
1;
#190000
0;
#195000
b111111100000000000000000000000 4"
b11110000000000 5"
b1 m#
b0 7$
b0 7"
b1 e#
b1 b#
b10000 8$
b0 /$
b0 ,$
b1011 ;$
b1011 :$
b10000 $$
b1000 n#
0^#
b10010000000 h#
b1 p#
b1011 q#
b0 z
b0 w
b110011 9#
b10 v"
b1111 6"
b1111111 8"
b10000 4$
b0 2$
b0 5$
b10000 ~#
b1000 j#
0_#
b1001000000 k#
b100000000000000000000000000000000000000000000000000 }
b1000000000000000000000000000000000000000000000000 ""
b1111111 !"
0)#
b10000 3$
b0 0$
b10000 }#
b0 z#
b1000 i#
b1001000000 f#
b0 ,#
b1000000000000000000000000000000000000000000000000 |
b1000000000000000000000000000000000000000000000000 6#
b1111111 ~
b1111111 .#
1("
b1 3#
17#
b100 8#
1;
#200000
0;
#205000
b11110000000000 #
b11110000000000 x"
1!
07#
b100 8#
1;
#210000
0;
#215000
0!
b100 8#
b100010000000000 A$
b100001000000000 @$
b100000000000000 =$
b11 @
b11 A
b1000110010100000011000100110110001110100010000000110001001010100011000100101011001100000011110100110001 F$
b11110000000000 E$
1;
#220000
0;
#225000
b100000000000000000000000 ?"
0@"
b10000000000 N"
b100010000000000 K"
b1 L"
b110000000000000000000000 S"
b100010000000000 -"
b10000001 C"
0e
1b
b10000000 W"
b11000000000 ^"
b10000000 g"
1^
0]
b10000001 P"
b100010000000000 F"
b100001000000000 Y"
b10000000 `"
b100000000000000 i"
b10000000 p"
b100010000000000 ,"
b100010000000000 /"
b100010000000000 I"
b10001 Q"
b100010000000000 D"
b100001000000000 Z"
b10000 a"
b1000000000 _"
b100000000000000 j"
b10000 q"
1>
b100010000000000 8
b100010000000000 H
b100001000000000 7
b100001000000000 G
b100000000000000 6
b100000000000000 F
b100 8#
1;
#230000
0;
#235000
b10000000000000000000000000000000000000000000000000 :"
b100000000000000000000000000000000000000000000000 f
b11000000 =#
b1000000000000000000000000000000000000000000000000 ;"
b11001 <$
b10000001 t"
b1000000000000000000000000000000000000000000000000 u"
b1100000000000000000000000000000000000000000000000 <"
b1100000000000000000000000000000000000000000000000 w"
b100010000000000 ##
b100000000000000000000000 {"
b11000000000000000000000000000000000000000000000 '#
b10000001 z"
b0 9"
b10000001 }"
1)#
0>
b100 8#
1;
#240000
0;
#245000
b1000001001000000000000000000000 4"
b100100100000000 5"
b0 m#
b1000000000000000000000 7"
b1010 n#
b0 e#
b0 b#
b1011 q#
b1 p#
b1000000000000000000000 z
b1000000000000000000000 w
b110011 9#
b1 v"
b10010 6"
b10000010 8"
b1010 j#
b10000000000 h#
b1000000000 k#
b101000000000000000000000000000000000000000000000000 }
b10100000000000000000000000000000000000000000000000 ""
b10000010 !"
b1010 i#
b1000000000 f#
b100010000000000 2#
b10000000000000000000000000000000000000000000000000 ,#
b10100000000000000000000000000000000000000000000000 |
b100000000000000000000000000000000000000000000000 6#
b10000010 ~
b10000001 .#
17#
0)#
b100 8#
1;
#250000
0;
#255000
07#
b100100100000000 #
b100100100000000 x"
1!
b100 8#
1;
#260000
0;
#265000
0!
b100 8#
b111000001110000011100000111000 A$
b111000001110000011100000111000 @$
b111000001110000011100000111000 =$
b111000 B
b111000 C
b111000 D
b111000 E
b10 B$
b100 @
b100 A
b100011001010000001100010011011000111010001000000011001000101010001100110010101100110100001111010011000100110000 F$
b100100100000000 E$
1;
#270000
0;
#275000
b100001110000000000000000 ?"
b1110000 L"
b1111110 C"
b10000111000 N"
0b
b101110000011100000111000 K"
b100010001111000 -"
b1110000 ["
b10000111000 ^"
b1110000 k"
b10000111000 n"
0^
b1111110 P"
b1110000 G"
b1110000011100000111000 F"
0V
b101110000011100000111000 Y"
b1111110 `"
0M
b101110000011100000111000 i"
b1111110 p"
b101110000011100000111000 c"
b101110000011100000111000 S"
b1110000 g"
b1110000 W"
b11100000111000 /"
b1110000 J"
b1110000011100000111000 I"
b1110 Q"
b111000 O"
b111000001110000011100000111000 D"
b100010001111000 ,"
b110001000000 ."
b111000 0"
b1110000 \"
b1110000011100000111000 Z"
b1110 a"
b111000 _"
b111000 1"
b1110000 l"
b1110000011100000111000 j"
b1110 q"
b111000 o"
0v
1>
b111000001110000011100000111000 8
b111000001110000011100000111000 H
b111000001110000011100000111000 7
b111000001110000011100000111000 G
b111000001110000011100000111000 6
b111000001110000011100000111000 F
0)"
1&"
b10 <
b10 q
b100 8#
1;
#280000
0;
#285000
b0 :"
b1000011100000000000000000000100001001001000011011 f
b100000000 C#
b100000000 @#
b100000000 =#
b100000000 :#
b1000011100000000000000000000000000000000000000000 ;"
b0 <$
b1111110 t"
b1000011100000000000000000000000000000000000000000 u"
b100001001001000011011 <"
b100001001001000011011 w"
b100010001111000 ##
b100001110000000000000000 {"
b100001001001000011011100110110001000110001000000 '#
b1111110 z"
b1111100011 9"
b1100001 }"
b10 $#
1)#
0>
b100 8#
1;
#290000
0;
#295000
b111111000001110000000000000000 4"
b11100000111000 5"
b1110000000000000000 7"
b1000 8$
0($
b10000000000 2$
b1 :$
b1011 ;$
b1000 $$
0r#
b10000000000 |#
b1 &$
b1011 '$
b1000 n#
b1000 Z#
0J#
b10000000000 T#
b1 \#
b1011 ]#
b1110000000000000000 z
b1110000000000000000 w
1x
b110011 9#
b10 v"
b1110 6"
b1111110 8"
b1000 4$
0)$
b1000000000 5$
b1000 ~#
0s#
b1000000000 !$
b1000 j#
b1000 V#
0K#
b1000000000 W#
b100001110000000000000000000010000100100100001101100 }
b1000011100000000000000000000100001001001000011011 ""
b1111110 !"
0)#
b1000 3$
b1000000000 0$
b1000 }#
b1000000000 z#
b1000 i#
b1000000000 f#
b1000 U#
b1000000000 R#
b100010001111000 2#
b0 ,#
b1000011100000000000000000000100001001001000011011 |
b1000011100000000000000000000100001001001000011011 6#
b1111110 ~
b1111110 .#
0("
1%"
b10 3#
17#
b100 8#
1;
#300000
0;
#305000
b1000000010000000100000001000000 #
b1000000010000000100000001000000 x"
1!
07#
b100 8#
1;
#310000
0;
#315000
0!
b100 8#
b100 A$
b11 @$
b10 =$
b11 B$
b101 @
b101 A
b10001100101000000111000011110000011010000111010001000000011000100101010001100010010101100110001001111010011001000100000011000010110110001101100 F$
b1000000010000000100000001000000 E$
b1000000 B
b1000000 C
b1000000 D
b1000000 E
1;
#320000
0;
