stage2_test.vcd
$date
	Thu Mar 12 12:02:18 2026
$end
$version
	Icarus Verilog
$end
$timescale
	1ps
$end
$scope module tb_fma_fp8x4_stage2 $end
$var wire 1 ! valid_out $end
$var wire 1 " underflow $end
$var wire 32 # result [31:0] $end
$var wire 1 $ overflow $end
$var wire 1 % inexact $end
$var parameter 32 & FP16_FOUR $end
$var parameter 32 ' FP16_ONE $end
$var parameter 32 ( FP16_TEN $end
$var parameter 32 ) FP16_THREE $end
$var parameter 32 * FP16_TWO $end
$var parameter 32 + FP16_ZERO $end
$var parameter 32 , FP32_FOUR $end
$var parameter 32 - FP32_ONE $end
$var parameter 32 . FP32_TEN $end
$var parameter 32 / FP32_THREE $end
$var parameter 32 0 FP32_TWO $end
$var parameter 32 1 FP32_ZERO $end
$var parameter 8 2 FP8_HALF $end
$var parameter 8 3 FP8_NEG1 $end
$var parameter 8 4 FP8_ONE $end
$var parameter 8 5 FP8_TWO $end
$var parameter 8 6 FP8_ZERO $end
$var reg 32 7 A [31:0] $end
$var reg 32 8 B [31:0] $end
$var reg 32 9 C [31:0] $end
$var reg 1 : clk $end
$var reg 2 ; mode [1:0] $end
$var reg 1 < rst_n $end
$var reg 1 = valid_in $end
$var integer 32 > fail_count [31:0] $end
$var integer 32 ? pass_count [31:0] $end
$var integer 32 @ test_count [31:0] $end
$scope function pack_fp8 $end
$var reg 8 A v0 [7:0] $end
$var reg 8 B v1 [7:0] $end
$var reg 8 C v2 [7:0] $end
$var reg 8 D v3 [7:0] $end
$upscope $end
$scope module dut $end
$var wire 32 E A [31:0] $end
$var wire 32 F B [31:0] $end
$var wire 32 G C [31:0] $end
$var wire 1 H a16_is_denorm $end
$var wire 1 I a16_is_inf $end
$var wire 1 J a16_is_nan $end
$var wire 1 K a16_is_zero $end
$var wire 1 L a32_is_denorm $end
$var wire 1 M a32_is_inf $end
$var wire 1 N a32_is_nan $end
$var wire 1 O a32_is_zero $end
$var wire 1 P b16_is_denorm $end
$var wire 1 Q b16_is_inf $end
$var wire 1 R b16_is_nan $end
$var wire 1 S b16_is_zero $end
$var wire 1 T b32_is_denorm $end
$var wire 1 U b32_is_inf $end
$var wire 1 V b32_is_nan $end
$var wire 1 W b32_is_zero $end
$var wire 1 X c16_is_denorm $end
$var wire 1 Y c16_is_inf $end
$var wire 1 Z c16_is_nan $end
$var wire 1 [ c16_is_zero $end
$var wire 1 \ c32_is_denorm $end
$var wire 1 ] c32_is_inf $end
$var wire 1 ^ c32_is_nan $end
$var wire 1 _ c32_is_zero $end
$var wire 1 : clk $end
$var wire 50 ` csa_sum_fp [49:0] $end
$var wire 1 a eff_sub_fp $end
$var wire 1 b fp16_ov $end
$var wire 1 c fp16_uf $end
$var wire 1 d fp32_ov $end
$var wire 1 e fp32_uf $end
$var wire 1 f inf_result_fp $end
$var wire 2 g mode [1:0] $end
$var wire 1 h nan_result_fp $end
$var wire 1 i product_sign_fp $end
$var wire 1 < rst_n $end
$var wire 1 j rup_fp $end
$var wire 1 k sub_borrow_fp $end
$var wire 1 = valid_in $end
$var wire 23 l trunc_fp [22:0] $end
$var wire 1 m sbit_fp $end
$var wire 1 n rsign_fp $end
$var wire 24 o rnd_fp [23:0] $end
$var wire 1 p rbit_fp $end
$var wire 51 q raw_fp [50:0] $end
$var wire 51 r norm_man_fp [50:0] $end
$var wire 10 s nexp_fp_s [9:0] $end
$var wire 9 t nexp_fp [8:0] $end
$var wire 51 u mag_fp [50:0] $end
$var wire 1 v is_fp8_out $end
$var wire 1 w is_fp8 $end
$var wire 1 x is_fp16_out $end
$var wire 1 y is_fp16 $end
$var wire 1 z inf_sign_fp $end
$var wire 1 { gbit_fp $end
$var wire 32 | fp32_res [31:0] $end
$var wire 16 } fp16_res [15:0] $end
$var wire 9 ~ fp16_eb [8:0] $end
$var wire 23 !" fman_fp [22:0] $end
$var wire 9 "" fexp_fp [8:0] $end
$var wire 10 #" exp_diff_fp [9:0] $end
$var wire 50 $" csa_carry_fp [49:0] $end
$var wire 50 %" csa_b_fp [49:0] $end
$var wire 50 &" csa_a_fp [49:0] $end
$var wire 50 '" cin_fp [49:0] $end
$var wire 1 (" c_sign_fp $end
$var wire 24 )" c_mantissa [23:0] $end
$var wire 1 *" c_is_zero $end
$var wire 1 +" c_is_nan $end
$var wire 1 ," c_is_inf $end
$var wire 8 -" c_exp_fp [7:0] $end
$var wire 1 ." c32_sign $end
$var wire 24 /" c32_mantissa [23:0] $end
$var wire 23 0" c32_man [22:0] $end
$var wire 8 1" c32_exp_adj [7:0] $end
$var wire 8 2" c32_exp [7:0] $end
$var wire 1 3" c16_sign $end
$var wire 11 4" c16_mraw [10:0] $end
$var wire 24 5" c16_mantissa [23:0] $end
$var wire 10 6" c16_man [9:0] $end
$var wire 8 7" c16_exp_fp32 [7:0] $end
$var wire 5 8" c16_exp [4:0] $end
$var wire 1 9" b_sign_fp $end
$var wire 24 :" b_mantissa [23:0] $end
$var wire 1 ;" b_is_zero $end
$var wire 1 <" b_is_nan $end
$var wire 1 =" b_is_inf $end
$var wire 8 >" b_exp_fp [7:0] $end
$var wire 1 ?" b32_sign $end
$var wire 24 @" b32_mantissa [23:0] $end
$var wire 23 A" b32_man [22:0] $end
$var wire 8 B" b32_exp_adj [7:0] $end
$var wire 8 C" b32_exp [7:0] $end
$var wire 1 D" b16_sign $end
$var wire 11 E" b16_mraw [10:0] $end
$var wire 24 F" b16_mantissa [23:0] $end
$var wire 10 G" b16_man [9:0] $end
$var wire 8 H" b16_exp_fp32 [7:0] $end
$var wire 5 I" b16_exp [4:0] $end
$var wire 1 J" a_sign_fp $end
$var wire 24 K" a_mantissa [23:0] $end
$var wire 1 L" a_is_zero $end
$var wire 1 M" a_is_nan $end
$var wire 1 N" a_is_inf $end
$var wire 8 O" a_exp_fp [7:0] $end
$var wire 1 P" a32_sign $end
$var wire 24 Q" a32_mantissa [23:0] $end
$var wire 23 R" a32_man [22:0] $end
$var wire 8 S" a32_exp_adj [7:0] $end
$var wire 8 T" a32_exp [7:0] $end
$var wire 1 U" a16_sign $end
$var wire 11 V" a16_mraw [10:0] $end
$var wire 24 W" a16_mantissa [23:0] $end
$var wire 10 X" a16_man [9:0] $end
$var wire 8 Y" a16_exp_fp32 [7:0] $end
$var wire 5 Z" a16_exp [4:0] $end
$var reg 9 [" align_exp_fp [8:0] $end
$var reg 50 \" c_aligned_fp [49:0] $end
$var reg 1 % inexact $end
$var reg 6 ]" lzd_fp [5:0] $end
$var reg 1 $ overflow $end
$var reg 50 ^" product_aligned_fp [49:0] $end
$var reg 32 _" result [31:0] $end
$var reg 8 `" s1_c_exp_fp [7:0] $end
$var reg 24 a" s1_c_mantissa_fp [23:0] $end
$var reg 1 b" s1_c_sign_fp $end
$var reg 9 c" s1_exp_sum_fp [8:0] $end
$var reg 1 d" s1_inf_fp $end
$var reg 1 e" s1_inf_sign_fp $end
$var reg 2 f" s1_mode [1:0] $end
$var reg 1 g" s1_nan_fp $end
$var reg 1 h" s1_prod_zero_fp $end
$var reg 48 i" s1_product_fp [47:0] $end
$var reg 1 j" s1_product_sign_fp $end
$var reg 1 k" s1_valid $end
$var reg 1 l" s2_c_sign_fp $end
$var reg 50 m" s2_carry_fp [49:0] $end
$var reg 1 n" s2_eff_sub_fp $end
$var reg 9 o" s2_exp_fp [8:0] $end
$var reg 1 p" s2_inf_fp $end
$var reg 1 q" s2_inf_sign_fp $end
$var reg 2 r" s2_mode [1:0] $end
$var reg 1 s" s2_nan_fp $end
$var reg 1 t" s2_product_sign_fp $end
$var reg 50 u" s2_sum_fp [49:0] $end
$var reg 1 v" s2_valid $end
$var reg 1 " underflow $end
$var reg 1 ! valid_out $end
$var integer 32 w" i [31:0] $end
$var integer 32 x" k [31:0] $end
$scope begin fp8_csa[0] $end
$var wire 10 y" fp8_csa_b [9:0] $end
$var wire 10 z" fp8_cin [9:0] $end
$var parameter 2 {" gi $end
$upscope $end
$scope begin fp8_csa[1] $end
$var wire 10 |" fp8_csa_b [9:0] $end
$var wire 10 }" fp8_cin [9:0] $end
$var parameter 2 ~" gi $end
$upscope $end
$scope begin fp8_csa[2] $end
$var wire 10 !# fp8_csa_b [9:0] $end
$var wire 10 "# fp8_cin [9:0] $end
$var parameter 3 ## gi $end
$upscope $end
$scope begin fp8_csa[3] $end
$var wire 10 $# fp8_csa_b [9:0] $end
$var wire 10 %# fp8_cin [9:0] $end
$var parameter 3 &# gi $end
$upscope $end
$scope begin fp8_extract[0] $end
$var parameter 2 '# gi $end
$upscope $end
$scope begin fp8_extract[1] $end
$var parameter 2 (# gi $end
$upscope $end
$scope begin fp8_extract[2] $end
$var parameter 3 )# gi $end
$upscope $end
$scope begin fp8_extract[3] $end
$var parameter 3 *# gi $end
$upscope $end
$scope begin fp8_multiply[0] $end
$var parameter 2 +# gi $end
$upscope $end
$scope begin fp8_multiply[1] $end
$var parameter 2 ,# gi $end
$upscope $end
$scope begin fp8_multiply[2] $end
$var parameter 3 -# gi $end
$upscope $end
$scope begin fp8_multiply[3] $end
$var parameter 3 .# gi $end
$upscope $end
$scope begin fp8_norm[0] $end
$var wire 1 /# fp8_is_ov $end
$var wire 1 0# fp8_is_uf $end
$var wire 1 1# fp8_rup $end
$var wire 1 2# fp8_sub_borrow $end
$var wire 3 3# fp8_trunc [2:0] $end
$var wire 1 4# fp8_s $end
$var wire 1 5# fp8_rsign $end
$var wire 4 6# fp8_rnd [3:0] $end
$var wire 11 7# fp8_raw [10:0] $end
$var wire 1 8# fp8_r $end
$var wire 11 9# fp8_norm [10:0] $end
$var wire 6 :# fp8_nexp_s [5:0] $end
$var wire 5 ;# fp8_nexp [4:0] $end
$var wire 11 <# fp8_mag [10:0] $end
$var wire 1 =# fp8_g $end
$var wire 3 ># fp8_fman [2:0] $end
$var wire 5 ?# fp8_fexp [4:0] $end
$var parameter 2 @# gi $end
$var reg 4 A# fp8_lzd [3:0] $end
$var integer 32 B# j [31:0] $end
$upscope $end
$scope begin fp8_norm[1] $end
$var wire 1 C# fp8_is_ov $end
$var wire 1 D# fp8_is_uf $end
$var wire 1 E# fp8_rup $end
$var wire 1 F# fp8_sub_borrow $end
$var wire 3 G# fp8_trunc [2:0] $end
$var wire 1 H# fp8_s $end
$var wire 1 I# fp8_rsign $end
$var wire 4 J# fp8_rnd [3:0] $end
$var wire 11 K# fp8_raw [10:0] $end
$var wire 1 L# fp8_r $end
$var wire 11 M# fp8_norm [10:0] $end
$var wire 6 N# fp8_nexp_s [5:0] $end
$var wire 5 O# fp8_nexp [4:0] $end
$var wire 11 P# fp8_mag [10:0] $end
$var wire 1 Q# fp8_g $end
$var wire 3 R# fp8_fman [2:0] $end
$var wire 5 S# fp8_fexp [4:0] $end
$var parameter 2 T# gi $end
$var reg 4 U# fp8_lzd [3:0] $end
$var integer 32 V# j [31:0] $end
$upscope $end
$scope begin fp8_norm[2] $end
$var wire 1 W# fp8_is_ov $end
$var wire 1 X# fp8_is_uf $end
$var wire 1 Y# fp8_rup $end
$var wire 1 Z# fp8_sub_borrow $end
$var wire 3 [# fp8_trunc [2:0] $end
$var wire 1 \# fp8_s $end
$var wire 1 ]# fp8_rsign $end
$var wire 4 ^# fp8_rnd [3:0] $end
$var wire 11 _# fp8_raw [10:0] $end
$var wire 1 `# fp8_r $end
$var wire 11 a# fp8_norm [10:0] $end
$var wire 6 b# fp8_nexp_s [5:0] $end
$var wire 5 c# fp8_nexp [4:0] $end
$var wire 11 d# fp8_mag [10:0] $end
$var wire 1 e# fp8_g $end
$var wire 3 f# fp8_fman [2:0] $end
$var wire 5 g# fp8_fexp [4:0] $end
$var parameter 3 h# gi $end
$var reg 4 i# fp8_lzd [3:0] $end
$var integer 32 j# j [31:0] $end
$upscope $end
$scope begin fp8_norm[3] $end
$var wire 1 k# fp8_is_ov $end
$var wire 1 l# fp8_is_uf $end
$var wire 1 m# fp8_rup $end
$var wire 1 n# fp8_sub_borrow $end
$var wire 3 o# fp8_trunc [2:0] $end
$var wire 1 p# fp8_s $end
$var wire 1 q# fp8_rsign $end
$var wire 4 r# fp8_rnd [3:0] $end
$var wire 11 s# fp8_raw [10:0] $end
$var wire 1 t# fp8_r $end
$var wire 11 u# fp8_norm [10:0] $end
$var wire 6 v# fp8_nexp_s [5:0] $end
$var wire 5 w# fp8_nexp [4:0] $end
$var wire 11 x# fp8_mag [10:0] $end
$var wire 1 y# fp8_g $end
$var wire 3 z# fp8_fman [2:0] $end
$var wire 5 {# fp8_fexp [4:0] $end
$var parameter 3 |# gi $end
$var reg 4 }# fp8_lzd [3:0] $end
$var integer 32 ~# j [31:0] $end
$upscope $end
$scope begin fp8_align_block $end
$var reg 6 !$ fp8_exp_diff [5:0] $end
$upscope $end
$upscope $end
$scope task apply_input $end
$var reg 32 "$ a_val [31:0] $end
$var reg 32 #$ b_val [31:0] $end
$var reg 32 $$ c_val [31:0] $end
$var reg 2 %$ m [1:0] $end
$upscope $end
$scope task check_fp8_lane $end
$var reg 8 &$ actual [7:0] $end
$var reg 8 '$ expected [7:0] $end
$var reg 2 ($ lane [1:0] $end
$var reg 256 )$ test_name [255:0] $end
$upscope $end
$scope task check_result $end
$var reg 32 *$ expected [31:0] $end
$var reg 256 +$ test_name [255:0] $end
$upscope $end
$scope task wait_result $end
$upscope $end
$upscope $end
$enddefinitions $end
$comment Show the parameter values. $end
$dumpall
b11 |#
b10 h#
b1 T#
b0 @#
b11 .#
b10 -#
b1 ,#
b0 +#
b11 *#
b10 )#
b1 (#
b0 '#
b11 &#
b10 ##
b1 ~"
b0 {"
b0 6
b1000000 5
b111000 4
b10111000 3
b110000 2
b0 1
b1000000000000000000000000000000 0
b1000000010000000000000000000000 /
b1000001001000000000000000000000 .
b111111100000000000000000000000 -
b1000000100000000000000000000000 ,
b0 +
b100000000000000 *
b100001000000000 )
b100100100000000 (
b11110000000000 '
b100010000000000 &
$end
#0
$dumpvars
bx +$
bx *$
bx )$
bx ($
bx '$
bx &$
bx %$
bx $$
bx #$
bx "$
b0 !$
b1011 ~#
b1011 }#
b10111 {#
b0 z#
0y#
b0 x#
b10111 w#
b110111 v#
b0 u#
0t#
b0 s#
b0 r#
0q#
0p#
b0 o#
0n#
0m#
0l#
0k#
b1011 j#
b1011 i#
b10111 g#
b0 f#
0e#
b0 d#
b10111 c#
b110111 b#
b0 a#
0`#
b0 _#
b0 ^#
0]#
0\#
b0 [#
0Z#
0Y#
0X#
0W#
b1011 V#
b1011 U#
b10111 S#
b0 R#
0Q#
b0 P#
b10111 O#
b110111 N#
b0 M#
0L#
b0 K#
b0 J#
0I#
0H#
b0 G#
0F#
0E#
0D#
0C#
b1011 B#
b1011 A#
b10111 ?#
b0 >#
0=#
b0 <#
b10111 ;#
b110111 :#
b0 9#
08#
b0 7#
b0 6#
05#
04#
b0 3#
02#
01#
00#
0/#
b0 %#
b0 $#
b0 "#
b0 !#
b0 }"
b0 |"
b0 z"
b0 y"
b110011 x"
b100 w"
0v"
b0 u"
0t"
0s"
b0 r"
0q"
0p"
b0 o"
0n"
b0 m"
0l"
0k"
0j"
b0 i"
0h"
0g"
b0 f"
0e"
0d"
b0 c"
0b"
b0 a"
b0 `"
b0 _"
b0 ^"
b110011 ]"
b0 \"
b0 ["
b0 Z"
b1110000 Y"
b0 X"
b0 W"
b0 V"
0U"
b0 T"
b0 S"
b0 R"
b0 Q"
0P"
b0 O"
0N"
0M"
1L"
b0 K"
0J"
b0 I"
b1110000 H"
b0 G"
b0 F"
b0 E"
0D"
b0 C"
b0 B"
b0 A"
b0 @"
0?"
b0 >"
0="
0<"
1;"
b0 :"
09"
b0 8"
b1110000 7"
b0 6"
b0 5"
b0 4"
03"
b0 2"
b0 1"
b0 0"
b0 /"
0."
b0 -"
0,"
0+"
1*"
b0 )"
0("
b0 '"
b0 &"
b0 %"
b0 $"
b0 #"
b111001111 ""
b0 !"
b101011111 ~
b0 }
b0 |
0{
0z
0y
0x
0w
0v
b0 u
b111001111 t
b1111001111 s
b0 r
b0 q
0p
b0 o
0n
0m
b0 l
0k
0j
0i
0h
b0 g
0f
0e
0d
0c
0b
0a
b0 `
1_
0^
0]
0\
1[
0Z
0Y
0X
1W
0V
0U
0T
1S
0R
0Q
0P
1O
0N
0M
0L
1K
0J
0I
0H
b0 G
b0 F
b0 E
bx D
bx C
bx B
bx A
b0 @
b0 ?
b0 >
0=
0<
b0 ;
0:
b0 9
b0 8
b0 7
0%
0$
b0 #
0"
0!
$end
#5000
b100 w"
1:
#10000
0:
#15000
b100 w"
1:
#20000
0:
#25000
b100 w"
1:
#30000
0:
#35000
b100 w"
1:
#40000
0:
#45000
b11001 !$
b110000001 ["
1h"
b110000001 #"
b110000001 c"
b100 w"
1<
1:
#50000
0:
#55000
b10000 {#
b10000 g#
b10000 S#
b10000 ?#
b11100000 ~
b101010000 ""
b10000 w#
b10000 c#
b10000 O#
b10000 ;#
b101010000 t
b10000 v#
b10000 b#
b10000 N#
b10000 :#
b101010000 s
b110000001 o"
b100 w"
1:
#60000
0:
#65000
b100 w"
b0 $$
b111111100000000000000000000000 #$
b111111100000000000000000000000 "$
b0 %$
1:
#70000
0:
#75000
b100000000000000000000000 :"
b100000000000000000000000 K"
b100000000000000000000000 @"
b100000000000000000000000 Q"
0;"
b1111111 >"
0L"
b1111111 O"
0W
b1111111 B"
0O
b1111111 S"
b1111111 C"
b1111111 T"
1=
b111111100000000000000000000000 8
b111111100000000000000000000000 F
b111111100000000000000000000000 7
b111111100000000000000000000000 E
b100 w"
1:
#80000
0:
#85000
b1000000000000000000000000000000000000000000000000 `
b111 !$
b1111111 ["
b1000000000000000000000000000000000000000000000000 &"
b1000000000000000000000000000000000000000000000000 ^"
0h"
b10000000000000000000000000000000000000000000000 i"
b1111111 #"
b1111111 c"
1k"
0=
b100 w"
1:
#90000
0:
#95000
b110 z#
0c
b11110000000000 }
b110 r#
b110 o#
1p#
b1000 {#
0k#
b11100001000 u#
b1 }#
b1011 ~#
b111111100000000000000000000000 |
0b
b100000000000000000000000000000000000000000000000000 r
b10 ]"
b110011 x"
b1111 ~
b1111111 ""
b1000 w#
0l#
b1110000100 x#
b1000000000000000000000000000000000000000000000000 u
b1111111 t
0k"
b1000 v#
b1110000100 s#
b1000000000000000000000000000000000000000000000000 q
b1000000000000000000000000000000000000000000000000 u"
b1111111 s
b1111111 o"
1v"
b100 w"
1:
#100000
0:
#105000
b111111100000000000000000000000 #
b111111100000000000000000000000 _"
1!
0v"
b100 w"
1:
#110000
0:
#115000
0!
b100 w"
b1000000100000000000000000000000 $$
b1000000010000000000000000000000 #$
b1000000000000000000000000000000 "$
b1 ?
b1 @
b100011001010000001100110011001000111010001000000011000100101010001100010010101100110000 +$
b111111100000000000000000000000 *$
1:
#120000
0:
#125000
b100000000000000000000000 )"
b100000000000000000000000 /"
b110000000000000000000000 :"
0*"
b10000001 -"
b10000000 >"
b110000000000000000000000 @"
b10000000 O"
0_
b10000001 1"
b10000000 B"
b10000000 S"
b10000001 2"
b10000000 C"
b10000000000000000000000 A"
b10000000 T"
1=
b1000000100000000000000000000000 9
b1000000100000000000000000000000 G
b1000000010000000000000000000000 8
b1000000010000000000000000000000 F
b1000000000000000000000000000000 7
b1000000000000000000000000000000 E
b100 w"
1:
#130000
0:
#135000
b10000000000000000000000000000000000000000000000000 $"
b100000000000000000000000000000000000000000000000 `
b1111111111 !#
b10000000 $#
b1000000000000000000000000000000000000000000000000 %"
b1 "#
b1 !$
b10000001 ["
b1000000000000000000000000000000000000000000000000 \"
b1100000000000000000000000000000000000000000000000 &"
b1100000000000000000000000000000000000000000000000 ^"
b100000000000000000000000 a"
b11000000000000000000000000000000000000000000000 i"
b10000001 `"
b0 #"
b10000001 c"
1k"
0=
b100 w"
1:
#140000
0:
#145000
b1000001001000000000000000000000 |
b100100100000000 }
b100 z#
b1000000000000000000000 !"
b100 r#
b100 o#
b1001 {#
0p#
b1011 ~#
b10 }#
0]#
b11000 g#
0W#
b0 a#
b1011 i#
b1011 j#
b1000000000000000000000 o
b1000000000000000000000 l
b110011 x"
b1 ]"
b10010 ~
b10000010 ""
b1001 w#
b11000000000 u#
b110000000 x#
0Z#
b11000 c#
0X#
b0 d#
b101000000000000000000000000000000000000000000000000 r
b10100000000000000000000000000000000000000000000000 u
b10000010 t
b1001 v#
b110000000 s#
b111000 b#
b10000000000 _#
b10000000000000000000000000000000000000000000000000 m"
b10100000000000000000000000000000000000000000000000 q
b100000000000000000000000000000000000000000000000 u"
b10000010 s
b10000001 o"
1v"
0k"
b100 w"
1:
#150000
0:
#155000
0v"
b1000001001000000000000000000000 #
b1000001001000000000000000000000 _"
1!
b100 w"
1:
#160000
0:
#165000
0!
b100 w"
b0 $$
b11110000000000 #$
b11110000000000 "$
b1 %$
b10 ?
b10 @
b100011001010000001100110011001000111010001000000011001000101010001100110010101100110100 +$
b1000001001000000000000000000000 *$
1:
#170000
0:
#175000
b0 /"
b100000000000000000000000 F"
b10000000000 E"
b100000000000000000000000 W"
b10000000000 V"
b11110000000000 @"
b11110000000000 Q"
1_
b0 1"
1T
b1 B"
0S
b1111111 H"
b1 S"
1L
0K
b1111111 Y"
b0 2"
b0 C"
b11110000000000 A"
b1111 I"
b0 T"
b11110000000000 R"
b1111 Z"
0L"
0;"
1*"
b100000000000000000000000 K"
b100000000000000000000000 :"
b0 )"
b1111111 O"
b1111111 >"
b1110000 -"
1=
b0 9
b0 G
b11110000000000 8
b11110000000000 F
b11110000000000 7
b11110000000000 E
1y
b1 ;
b1 g
b100 w"
1:
#180000
0:
#185000
b0 $"
b1000000000000000000000000000000000000000000000000 `
b0 !#
b0 $#
b0 %"
b0 "#
b11001 !$
b1111111 ["
b0 \"
b1000000000000000000000000000000000000000000000000 &"
b1000000000000000000000000000000000000000000000000 ^"
b0 a"
b10000000000000000000000000000000000000000000000 i"
b1110000 `"
b1111 #"
b1111111 c"
b1 f"
1k"
0=
b100 w"
1:
#190000
0:
#195000
b111111100000000000000000000000 |
b11110000000000 }
b1 R#
b0 z#
b0 !"
b1 J#
b1 G#
b10000 {#
b0 r#
b0 o#
b1011 ~#
b1011 }#
b10000 g#
b1000 S#
0C#
b10010000000 M#
b1 U#
b1011 V#
b0 o
b0 l
b110011 x"
b10 ]"
b1111 ~
b1111111 ""
b10000 w#
b0 u#
b0 x#
b10000 c#
b1000 O#
0D#
b1001000000 P#
b100000000000000000000000000000000000000000000000000 r
b1000000000000000000000000000000000000000000000000 u
b1111111 t
0k"
b10000 v#
b0 s#
b10000 b#
b0 _#
b1000 N#
b1001000000 K#
b0 m"
b1000000000000000000000000000000000000000000000000 q
b1000000000000000000000000000000000000000000000000 u"
b1111111 s
b1111111 o"
1x
b1 r"
1v"
b100 w"
1:
#200000
0:
#205000
b11110000000000 #
b11110000000000 _"
1!
0v"
b100 w"
1:
#210000
0:
#215000
0!
b100 w"
b100010000000000 $$
b100001000000000 #$
b100000000000000 "$
b11 ?
b11 @
b100011001010000001100010011011000111010001000000011000100101010001100010010101100110000 +$
b11110000000000 *$
1:
#220000
0:
#225000
b100000000000000000000000 )"
b100000000000000000000000 5"
b10000000000 4"
b110000000000000000000000 :"
b100010000000000 /"
b1 1"
0*"
b10000001 -"
b10000000 >"
b110000000000000000000000 F"
b11000000000 E"
b10000000 O"
0_
1\
0[
b10000001 7"
b100001000000000 @"
b10000000 H"
b100000000000000 Q"
b10000000 Y"
b100010000000000 0"
b10001 8"
b100001000000000 A"
b10000 I"
b1000000000 G"
b100000000000000 R"
b10000 Z"
1=
b100010000000000 9
b100010000000000 G
b100001000000000 8
b100001000000000 F
b100000000000000 7
b100000000000000 E
b100 w"
1:
#230000
0:
#235000
b10000000000000000000000000000000000000000000000000 $"
b100000000000000000000000000000000000000000000000 `
b11000000 |"
b1000000000000000000000000000000000000000000000000 %"
b11001 !$
b10000001 ["
b1000000000000000000000000000000000000000000000000 \"
b1100000000000000000000000000000000000000000000000 &"
b1100000000000000000000000000000000000000000000000 ^"
b100000000000000000000000 a"
b11000000000000000000000000000000000000000000000 i"
b10000001 `"
b0 #"
b10000001 c"
1k"
0=
b100 w"
1:
#240000
0:
#245000
b1000001001000000000000000000000 |
b100100100000000 }
b0 R#
b1000000000000000000000 !"
b1010 S#
b0 J#
b0 G#
b1011 V#
b1 U#
b1000000000000000000000 o
b1000000000000000000000 l
b110011 x"
b1 ]"
b10010 ~
b10000010 ""
b1010 O#
b10000000000 M#
b1000000000 P#
b101000000000000000000000000000000000000000000000000 r
b10100000000000000000000000000000000000000000000000 u
b10000010 t
b1010 N#
b1000000000 K#
b10000000000000000000000000000000000000000000000000 m"
b10100000000000000000000000000000000000000000000000 q
b100000000000000000000000000000000000000000000000 u"
b10000010 s
b10000001 o"
1v"
0k"
b100 w"
1:
#250000
0:
#255000
0v"
b100100100000000 #
b100100100000000 _"
1!
b100 w"
1:
#260000
0:
#265000
0!
b100 w"
b0 $$
b111000001110000011100000111000 #$
b111000001110000011100000111000 "$
b0 A
b0 B
b0 C
b0 D
b10 %$
b100 ?
b100 @
b100011001010000001100010011011000111010001000000011001000101010001100110010101100110100 +$
b100100100000000 *$
1:
#270000
0:
#275000
b0 5"
b0 4"
1*"
b0 1"
b1110000 B"
b100001110000000000000000 F"
b10000111000 E"
b1110000 S"
b100001110000000000000000 W"
b10000111000 V"
1_
0\
b0 /"
1[
b1110000 7"
0T
b101110000011100000111000 @"
b1111110 H"
0L
b101110000011100000111000 Q"
b1111110 Y"
b0 0"
b0 8"
b1110000 C"
b1110000011100000111000 A"
b1110 I"
b111000 G"
b1110000 T"
b1110000011100000111000 R"
b1110 Z"
b111000 X"
b101110000011100000111000 K"
b101110000011100000111000 :"
b0 )"
b1110000 O"
b1110000 >"
b0 -"
1=
b0 9
b0 G
b111000001110000011100000111000 8
b111000001110000011100000111000 F
b111000001110000011100000111000 7
b111000001110000011100000111000 E
0y
1w
b10 ;
b10 g
b100 w"
1:
#280000
0:
#285000
b0 $"
b10000100100100001101110011011000100011000100000000 `
b0 |"
b0 %"
b111 !$
b1100001 ["
b0 \"
b10000100100100001101110011011000100011000100000000 &"
b10000100100100001101110011011000100011000100000000 ^"
b0 a"
b100001001001000011011100110110001000110001000000 i"
b0 `"
b1100001 #"
b1100001 c"
b10 f"
1k"
0=
b100 w"
1:
#290000
0:
#295000
b110001000001001001000011011101 |
1j
b111110000000000 }
1c
b1001001000011011101 !"
1b
b111 {#
0k#
b10000000000 u#
b10 }#
b1011 ~#
b111 g#
0W#
b10000000000 a#
b10 i#
b1011 j#
b111 S#
b1011 V#
b10 U#
b111 ?#
0/#
b10000000000 9#
b10 A#
b1011 B#
b1001001000011011101 o
b1001001000011011100 l
1{
1p
1m
b110011 x"
b1 ]"
b111110010 ~
b1100010 ""
b111 w#
0l#
b100000000 x#
b111 c#
0X#
b100000000 d#
b111 O#
b10000000000 M#
b100000000 P#
b111 ;#
00#
b100000000 <#
b100001001001000011011100110110001000110001000000000 r
b10000100100100001101110011011000100011000100000000 u
b1100010 t
0k"
b111 v#
b100000000 s#
b111 b#
b100000000 _#
b111 N#
b100000000 K#
b111 :#
b100000000 7#
b0 m"
b10000100100100001101110011011000100011000100000000 q
b10000100100100001101110011011000100011000100000000 u"
b1100010 s
b1100001 o"
0x
1v
b10 r"
1v"
b100 w"
1:
#300000
0:
#305000
b111000001110000011100000111000 #
b111000001110000011100000111000 _"
1!
0v"
b100 w"
1:
#310000
0:
#315000
0!
b100 w"
b0 #$
b0 "$
b1000 ?
b111000 &$
b1000 @
b1000110010100000011100000111010001000000011000100101010001100010010101100110000 )$
b111000 '$
b11 ($
1:
#320000
0:
#325000
b0 :"
b0 K"
b0 >"
1;"
b0 @"
b0 F"
b0 E"
b0 O"
1L"
b0 Q"
b0 W"
b0 V"
b0 B"
1W
b1110000 H"
1S
b0 S"
1O
b1110000 Y"
1K
b0 C"
b0 A"
b0 I"
b0 G"
b0 T"
b0 R"
b0 Z"
b0 X"
1=
b0 8
b0 F
b0 7
b0 E
b100 w"
1:
#330000
0:
#335000
b0 `
b11001 !$
b110000001 ["
b0 &"
b0 ^"
1h"
b0 i"
b110000001 #"
b110000001 c"
1k"
0=
b100 w"
1:
#340000
0:
#345000
b0 !"
0j
b10000 {#
b1011 ~#
b1011 }#
b10000 g#
b1011 j#
b1011 i#
b10000 S#
b1011 V#
b1011 U#
b10000 ?#
b1011 B#
b1011 A#
b0 o
b0 l
0{
0p
0m
b0 |
0b
0c
b0 }
b110011 x"
b110011 ]"
b11100000 ~
b101010000 ""
b10000 w#
b0 u#
b0 x#
b10000 c#
b0 a#
b0 d#
b10000 O#
b0 M#
b0 P#
b10000 ;#
b0 9#
b0 <#
b0 r
b0 u
b101010000 t
b10000 v#
b0 s#
b10000 b#
b0 _#
b10000 N#
b0 K#
b10000 :#
b0 7#
b0 q
b0 u"
b101010000 s
b110000001 o"
1v"
0k"
b100 w"
1:
#350000
0:
#355000
0v"
b0 #
b0 _"
1!
b100 w"
1:
#360000
0:
#365000
0!
b100 w"
b111000 $$
b111000 #$
b111000 "$
b111000 A
b1100 ?
b0 &$
b1100 @
b1000110010100000011100000111010001000000011000000101010001100000010101100110000 )$
b0 '$
b11 ($
1:
#370000
0:
