stage1_test.vcd
$date
	Thu Mar 12 12:02:18 2026
$end
$version
	Icarus Verilog
$end
$timescale
	1ps
$end
$scope module tb_fma_fp16_stage1 $end
$var wire 1 ! valid_out $end
$var wire 1 " underflow $end
$var wire 32 # result [31:0] $end
$var wire 1 $ overflow $end
$var wire 1 % inexact $end
$var parameter 32 & FP16_FOUR $end
$var parameter 32 ' FP16_HALF $end
$var parameter 32 ( FP16_INF $end
$var parameter 32 ) FP16_NAN $end
$var parameter 32 * FP16_NEG_ONE $end
$var parameter 32 + FP16_NINF $end
$var parameter 32 , FP16_ONE $end
$var parameter 32 - FP16_TEN $end
$var parameter 32 . FP16_THREE $end
$var parameter 32 / FP16_TWO $end
$var parameter 32 0 FP16_ZERO $end
$var parameter 32 1 FP32_FOUR $end
$var parameter 32 2 FP32_INF $end
$var parameter 32 3 FP32_NAN $end
$var parameter 32 4 FP32_NINF $end
$var parameter 32 5 FP32_ONE $end
$var parameter 32 6 FP32_TEN $end
$var parameter 32 7 FP32_THREE $end
$var parameter 32 8 FP32_TWO $end
$var parameter 32 9 FP32_ZERO $end
$var reg 32 : A [31:0] $end
$var reg 32 ; B [31:0] $end
$var reg 32 < C [31:0] $end
$var reg 1 = clk $end
$var reg 2 > mode [1:0] $end
$var reg 1 ? rst_n $end
$var reg 1 @ valid_in $end
$var integer 32 A fail_count [31:0] $end
$var integer 32 B pass_count [31:0] $end
$var integer 32 C test_count [31:0] $end
$scope module dut $end
$var wire 32 D A [31:0] $end
$var wire 32 E B [31:0] $end
$var wire 32 F C [31:0] $end
$var wire 1 G a16_is_denorm $end
$var wire 1 H a16_is_inf $end
$var wire 1 I a16_is_nan $end
$var wire 1 J a16_is_zero $end
$var wire 1 K a32_is_denorm $end
$var wire 1 L a32_is_inf $end
$var wire 1 M a32_is_nan $end
$var wire 1 N a32_is_zero $end
$var wire 1 O b16_is_denorm $end
$var wire 1 P b16_is_inf $end
$var wire 1 Q b16_is_nan $end
$var wire 1 R b16_is_zero $end
$var wire 1 S b32_is_denorm $end
$var wire 1 T b32_is_inf $end
$var wire 1 U b32_is_nan $end
$var wire 1 V b32_is_zero $end
$var wire 1 W c16_is_denorm $end
$var wire 1 X c16_is_inf $end
$var wire 1 Y c16_is_nan $end
$var wire 1 Z c16_is_zero $end
$var wire 1 [ c32_is_denorm $end
$var wire 1 \ c32_is_inf $end
$var wire 1 ] c32_is_nan $end
$var wire 1 ^ c32_is_zero $end
$var wire 1 = clk $end
$var wire 1 _ csa_cin $end
$var wire 50 ` csa_sum [49:0] $end
$var wire 1 a eff_sub $end
$var wire 1 b final_inexact $end
$var wire 16 c fp16_nan [15:0] $end
$var wire 1 d fp16_overflow $end
$var wire 1 e fp16_underflow $end
$var wire 32 f fp32_nan [31:0] $end
$var wire 1 g fp32_overflow $end
$var wire 1 h fp32_underflow $end
$var wire 1 i inf_result $end
$var wire 2 j mode [1:0] $end
$var wire 1 k nan_result $end
$var wire 1 l product_sign $end
$var wire 1 m round_up $end
$var wire 1 ? rst_n $end
$var wire 1 n special_case $end
$var wire 1 o sub_borrow $end
$var wire 1 @ valid_in $end
$var wire 23 p trunc_mantissa [22:0] $end
$var wire 1 q sticky_bit $end
$var wire 24 r rounded_mantissa [23:0] $end
$var wire 1 s round_bit $end
$var wire 1 t result_sign $end
$var wire 51 u raw_result [50:0] $end
$var wire 51 v norm_mantissa [50:0] $end
$var wire 10 w norm_exp_signed [9:0] $end
$var wire 9 x norm_exp [8:0] $end
$var wire 51 y magnitude [50:0] $end
$var wire 1 z is_fp16_mode $end
$var wire 1 { is_fp16 $end
$var wire 1 | inf_sign $end
$var wire 1 } guard_bit $end
$var wire 32 ~ fp32_result [31:0] $end
$var wire 16 !" fp16_result [15:0] $end
$var wire 10 "" fp16_mantissa [9:0] $end
$var wire 9 #" fp16_exp_biased [8:0] $end
$var wire 23 $" final_mantissa [22:0] $end
$var wire 9 %" final_exp [8:0] $end
$var wire 10 &" exp_diff [9:0] $end
$var wire 50 '" csa_op_b [49:0] $end
$var wire 50 (" csa_op_a [49:0] $end
$var wire 50 )" csa_carry [49:0] $end
$var wire 50 *" cin_ext [49:0] $end
$var wire 1 +" c_sign $end
$var wire 24 ," c_mantissa [23:0] $end
$var wire 1 -" c_is_zero $end
$var wire 1 ." c_is_nan $end
$var wire 1 /" c_is_inf $end
$var wire 1 0" c_is_denorm $end
$var wire 8 1" c_exp [7:0] $end
$var wire 1 2" c32_sign $end
$var wire 24 3" c32_mantissa [23:0] $end
$var wire 23 4" c32_man [22:0] $end
$var wire 8 5" c32_exp_adj [7:0] $end
$var wire 8 6" c32_exp [7:0] $end
$var wire 1 7" c16_sign $end
$var wire 11 8" c16_mantissa_raw [10:0] $end
$var wire 24 9" c16_mantissa [23:0] $end
$var wire 10 :" c16_man [9:0] $end
$var wire 8 ;" c16_exp_fp32 [7:0] $end
$var wire 5 <" c16_exp [4:0] $end
$var wire 1 =" b_sign $end
$var wire 24 >" b_mantissa [23:0] $end
$var wire 1 ?" b_is_zero $end
$var wire 1 @" b_is_nan $end
$var wire 1 A" b_is_inf $end
$var wire 1 B" b_is_denorm $end
$var wire 8 C" b_exp [7:0] $end
$var wire 1 D" b32_sign $end
$var wire 24 E" b32_mantissa [23:0] $end
$var wire 23 F" b32_man [22:0] $end
$var wire 8 G" b32_exp_adj [7:0] $end
$var wire 8 H" b32_exp [7:0] $end
$var wire 1 I" b16_sign $end
$var wire 11 J" b16_mantissa_raw [10:0] $end
$var wire 24 K" b16_mantissa [23:0] $end
$var wire 10 L" b16_man [9:0] $end
$var wire 8 M" b16_exp_fp32 [7:0] $end
$var wire 5 N" b16_exp [4:0] $end
$var wire 1 O" a_sign $end
$var wire 24 P" a_mantissa [23:0] $end
$var wire 1 Q" a_is_zero $end
$var wire 1 R" a_is_nan $end
$var wire 1 S" a_is_inf $end
$var wire 1 T" a_is_denorm $end
$var wire 8 U" a_exp [7:0] $end
$var wire 1 V" a32_sign $end
$var wire 24 W" a32_mantissa [23:0] $end
$var wire 23 X" a32_man [22:0] $end
$var wire 8 Y" a32_exp_adj [7:0] $end
$var wire 8 Z" a32_exp [7:0] $end
$var wire 1 [" a16_sign $end
$var wire 11 \" a16_mantissa_raw [10:0] $end
$var wire 24 ]" a16_mantissa [23:0] $end
$var wire 10 ^" a16_man [9:0] $end
$var wire 8 _" a16_exp_fp32 [7:0] $end
$var wire 5 `" a16_exp [4:0] $end
$var reg 9 a" align_exp [8:0] $end
$var reg 50 b" c_aligned [49:0] $end
$var reg 1 % inexact $end
$var reg 6 c" lzd_count [5:0] $end
$var reg 1 $ overflow $end
$var reg 50 d" product_aligned [49:0] $end
$var reg 32 e" result [31:0] $end
$var reg 8 f" s1_c_exp [7:0] $end
$var reg 24 g" s1_c_mantissa [23:0] $end
$var reg 1 h" s1_c_sign $end
$var reg 9 i" s1_exp_sum [8:0] $end
$var reg 1 j" s1_inf $end
$var reg 1 k" s1_inf_sign $end
$var reg 2 l" s1_mode [1:0] $end
$var reg 1 m" s1_nan $end
$var reg 1 n" s1_prod_zero $end
$var reg 48 o" s1_product [47:0] $end
$var reg 1 p" s1_product_sign $end
$var reg 1 q" s1_special $end
$var reg 1 r" s1_valid $end
$var reg 1 s" s2_c_sign $end
$var reg 50 t" s2_carry [49:0] $end
$var reg 1 u" s2_eff_sub $end
$var reg 9 v" s2_exp [8:0] $end
$var reg 1 w" s2_inf $end
$var reg 1 x" s2_inf_sign $end
$var reg 2 y" s2_mode [1:0] $end
$var reg 1 z" s2_nan $end
$var reg 1 {" s2_prod_zero $end
$var reg 1 |" s2_product_sign $end
$var reg 1 }" s2_special $end
$var reg 50 ~" s2_sum [49:0] $end
$var reg 1 !# s2_valid $end
$var reg 1 " underflow $end
$var reg 1 ! valid_out $end
$var integer 32 "# k [31:0] $end
$upscope $end
$scope task apply_input $end
$var reg 32 ## a_val [31:0] $end
$var reg 32 $# b_val [31:0] $end
$var reg 32 %# c_val [31:0] $end
$var reg 2 &# m [1:0] $end
$upscope $end
$scope task check_fp16_nan $end
$var reg 256 '# test_name [255:0] $end
$upscope $end
$scope task check_nan $end
$var reg 256 (# test_name [255:0] $end
$upscope $end
$scope task check_result $end
$var reg 32 )# expected [31:0] $end
$var reg 256 *# test_name [255:0] $end
$upscope $end
$scope task wait_result $end
$upscope $end
$upscope $end
$enddefinitions $end
$comment Show the parameter values. $end
$dumpall
b0 9
b1000000000000000000000000000000 8
b1000000010000000000000000000000 7
b1000001001000000000000000000000 6
b111111100000000000000000000000 5
b11111111100000000000000000000000 4
b1111111110000000000000000000000 3
b1111111100000000000000000000000 2
b1000000100000000000000000000000 1
b0 0
b100000000000000 /
b100001000000000 .
b100100100000000 -
b11110000000000 ,
b1111110000000000 +
b1011110000000000 *
b111111000000000 )
b111110000000000 (
b11100000000000 '
b100010000000000 &
$end
#0
$dumpvars
bx *#
bx )#
bx (#
bx '#
bx &#
bx %#
bx $#
bx ##
b110011 "#
0!#
b0 ~"
0}"
0|"
0{"
0z"
b0 y"
0x"
0w"
b0 v"
0u"
b0 t"
0s"
0r"
0q"
0p"
b0 o"
0n"
0m"
b0 l"
0k"
0j"
b0 i"
0h"
b0 g"
b0 f"
b0 e"
b0 d"
b110011 c"
b0 b"
b0 a"
b0 `"
b1110000 _"
b0 ^"
b0 ]"
b0 \"
0["
b0 Z"
b0 Y"
b0 X"
b0 W"
0V"
b0 U"
0T"
0S"
0R"
1Q"
b0 P"
0O"
b0 N"
b1110000 M"
b0 L"
b0 K"
b0 J"
0I"
b0 H"
b0 G"
b0 F"
b0 E"
0D"
b0 C"
0B"
0A"
0@"
1?"
b0 >"
0="
b0 <"
b1110000 ;"
b0 :"
b0 9"
b0 8"
07"
b0 6"
b0 5"
b0 4"
b0 3"
02"
b0 1"
00"
0/"
0."
1-"
b0 ,"
0+"
b0 *"
b0 )"
b0 ("
b0 '"
b0 &"
b111001111 %"
b0 $"
b101011111 #"
b0 ""
b0 !"
b0 ~
0}
0|
0{
0z
b0 y
b111001111 x
b1111001111 w
b0 v
b0 u
0t
0s
b0 r
0q
b0 p
0o
0n
0m
0l
0k
b0 j
0i
0h
0g
b1111111110000000000000000000000 f
0e
0d
b111111000000000 c
0b
0a
b0 `
0_
1^
0]
0\
0[
1Z
0Y
0X
0W
1V
0U
0T
0S
1R
0Q
0P
0O
1N
0M
0L
0K
1J
0I
0H
0G
b0 F
b0 E
b0 D
b0 C
b0 B
b0 A
0@
0?
b0 >
0=
b0 <
b0 ;
b0 :
0%
0$
b0 #
0"
0!
$end
#5000
1=
#10000
0=
#15000
1=
#20000
0=
#25000
1=
#30000
0=
#35000
1=
#40000
0=
#45000
b110000001 a"
1n"
b110000001 &"
b110000001 i"
1?
1=
#50000
0=
#55000
b11100000 #"
b101010000 %"
b101010000 x
1{"
b101010000 w
b110000001 v"
1=
#60000
0=
#65000
b0 %#
b111111100000000000000000000000 $#
b111111100000000000000000000000 ##
b0 &#
1=
#70000
0=
#75000
b100000000000000000000000 >"
b100000000000000000000000 P"
b100000000000000000000000 E"
b100000000000000000000000 W"
0?"
b1111111 C"
0Q"
b1111111 U"
0V
b1111111 G"
0N
b1111111 Y"
b1111111 H"
b1111111 Z"
1@
b111111100000000000000000000000 ;
b111111100000000000000000000000 E
b111111100000000000000000000000 :
b111111100000000000000000000000 D
1=
#80000
0=
#85000
b1000000000000000000000000000000000000000000000000 `
b1111111 a"
b1000000000000000000000000000000000000000000000000 ("
b1000000000000000000000000000000000000000000000000 d"
0n"
b10000000000000000000000000000000000000000000000 o"
b1111111 &"
b1111111 i"
1r"
0@
1=
#90000
0=
#95000
0e
b11110000000000 !"
b111111100000000000000000000000 ~
0d
b100000000000000000000000000000000000000000000000000 v
b10 c"
b110011 "#
b1111 #"
b1111111 %"
b1000000000000000000000000000000000000000000000000 y
b1111111 x
0r"
0{"
b1000000000000000000000000000000000000000000000000 u
b1000000000000000000000000000000000000000000000000 ~"
b1111111 w
b1111111 v"
1!#
1=
#100000
0=
#105000
b111111100000000000000000000000 #
b111111100000000000000000000000 e"
1!
0!#
1=
#110000
0=
#115000
0!
b1000000100000000000000000000000 %#
b1000000010000000000000000000000 $#
b1000000000000000000000000000000 ##
b1 B
b1 C
b10001100101000000110011001100100011101000100000001100010010111000110000001010100011000100101110001100000010101100110000001011100011000000111101001100010010111000110000 *#
b111111100000000000000000000000 )#
1=
#120000
0=
#125000
b100000000000000000000000 ,"
b100000000000000000000000 3"
b110000000000000000000000 >"
0-"
b10000001 1"
b10000000 C"
b110000000000000000000000 E"
b10000000 U"
0^
b10000001 5"
b10000000 G"
b10000000 Y"
b10000001 6"
b10000000 H"
b10000000000000000000000 F"
b10000000 Z"
1@
b1000000100000000000000000000000 <
b1000000100000000000000000000000 F
b1000000010000000000000000000000 ;
b1000000010000000000000000000000 E
b1000000000000000000000000000000 :
b1000000000000000000000000000000 D
1=
#130000
0=
#135000
b10000000000000000000000000000000000000000000000000 )"
b100000000000000000000000000000000000000000000000 `
b1000000000000000000000000000000000000000000000000 '"
b10000001 a"
b1000000000000000000000000000000000000000000000000 b"
b1100000000000000000000000000000000000000000000000 ("
b1100000000000000000000000000000000000000000000000 d"
b100000000000000000000000 g"
b11000000000000000000000000000000000000000000000 o"
b10000001 f"
b0 &"
b10000001 i"
1r"
0@
1=
#140000
0=
#145000
b1000001001000000000000000000000 ~
b100100100000000 !"
b100000000 ""
b1000000000000000000000 $"
b1000000000000000000000 r
b1000000000000000000000 p
b110011 "#
b1 c"
b10010 #"
b10000010 %"
b101000000000000000000000000000000000000000000000000 v
b10100000000000000000000000000000000000000000000000 y
b10000010 x
b10000000000000000000000000000000000000000000000000 t"
b10100000000000000000000000000000000000000000000000 u
b100000000000000000000000000000000000000000000000 ~"
b10000010 w
b10000001 v"
1!#
0r"
1=
#150000
0=
#155000
0!#
b1000001001000000000000000000000 #
b1000001001000000000000000000000 e"
1!
1=
#160000
0=
#165000
0!
b0 %#
b111111100000000000000000000000 $#
b1111111110000000000000000000000 ##
b10 B
b10 C
b1000110010100000011001100110010001110100010000000110010001011100011000000101010001100110010111000110000001010110011010000101110001100000011110100110001001100000010111000110000 *#
b1000001001000000000000000000000 )#
1=
#170000
0=
#175000
1k
1n
b0 ,"
b0 3"
b100000000000000000000000 >"
b110000000000000000000000 P"
1-"
b0 1"
b1111111 C"
b100000000000000000000000 E"
b11111111 U"
1R"
b110000000000000000000000 W"
1^
b0 5"
b1111111 G"
b11111111 Y"
1M
b0 6"
b1111111 H"
b0 F"
b11111111 Z"
b10000000000000000000000 X"
1@
b0 <
b0 F
b111111100000000000000000000000 ;
b111111100000000000000000000000 E
b1111111110000000000000000000000 :
b1111111110000000000000000000000 D
1=
#180000
0=
#185000
b0 )"
b1100000000000000000000000000000000000000000000000 `
b0 '"
b11111111 a"
b0 b"
b0 g"
b0 f"
b11111111 &"
b11111111 i"
1m"
1q"
1r"
0@
1=
#190000
0=
#195000
b1000000000 ""
b1111111100000000000000000000000 ~
b111110000000000 !"
b10000000000000000000000 $"
1g
1d
b10000000000000000000000 r
b10000000000000000000000 p
b110011 "#
b10 c"
b10001111 #"
b11111111 %"
b110000000000000000000000000000000000000000000000000 v
b1100000000000000000000000000000000000000000000000 y
b11111111 x
0r"
b0 t"
b1100000000000000000000000000000000000000000000000 u
b1100000000000000000000000000000000000000000000000 ~"
b11111111 w
b11111111 v"
1z"
1}"
1!#
1=
#200000
0=
#205000
b1111111110000000000000000000000 #
b1111111110000000000000000000000 e"
1!
0!#
1=
#210000
0=
#215000
0!
b1111111100000000000000000000000 $#
b0 ##
b11 B
b11 C
b100011001010000001100110011001000111010001000000100111001100001010011100010101000110001001011100011000000101011001100000010111000110000 (#
1=
#220000
0=
#225000
b0 P"
1A"
b11111111 C"
b0 U"
1Q"
0R"
b0 W"
1T
b11111111 G"
b0 Y"
1N
0M
b11111111 H"
b0 Z"
b0 X"
1@
b1111111100000000000000000000000 ;
b1111111100000000000000000000000 E
b0 :
b0 D
1=
#230000
0=
#235000
b0 `
b10000000 a"
b0 ("
b0 d"
1n"
b0 o"
b10000000 &"
b10000000 i"
1r"
0@
1=
#240000
0=
#245000
b0 ""
b0 $"
b0 r
b0 p
0g
b0 ~
0d
b0 !"
b110011 "#
b110011 c"
b111011111 #"
b1001111 %"
b0 v
b0 y
b1001111 x
1{"
b0 u
b0 ~"
b1001111 w
b10000000 v"
1!#
0r"
1=
#250000
0=
#255000
0!#
1!
1=
#260000
0=
#265000
0!
b11110000000000 $#
b11110000000000 ##
b1 &#
b100 B
b100 C
b1000110010100000011001100110010001110100010000000110000001010100100100101101110011001100010101100110000 (#
1=
#270000
0=
#275000
b100000000000000000000000 P"
b100000000000000000000000 K"
b10000000000 J"
b100000000000000000000000 ]"
b10000000000 \"
0k
b11110000000000 E"
b11110000000000 W"
b1 Y"
0Q"
0n
b1 G"
0T
1S
0R
b1111111 M"
0N
1K
0J
b1111111 _"
b0 H"
b11110000000000 F"
b1111 N"
b11110000000000 X"
b1111 `"
0?"
0A"
b100000000000000000000000 >"
b1111111 U"
b1111111 C"
b1110000 1"
1@
b11110000000000 ;
b11110000000000 E
b11110000000000 :
b11110000000000 D
1{
b1 >
b1 j
1=
#280000
0=
#285000
b1000000000000000000000000000000000000000000000000 `
b1111111 a"
b1000000000000000000000000000000000000000000000000 ("
b1000000000000000000000000000000000000000000000000 d"
0n"
b10000000000000000000000000000000000000000000000 o"
b1110000 f"
b1111 &"
b1111111 i"
0m"
0q"
b1 l"
1r"
0@
1=
#290000
0=
#295000
b111111100000000000000000000000 ~
0d
0e
b11110000000000 !"
b100000000000000000000000000000000000000000000000000 v
b10 c"
b110011 "#
b1111 #"
b1111111 %"
b1000000000000000000000000000000000000000000000000 y
b1111111 x
0r"
0{"
b1000000000000000000000000000000000000000000000000 u
b1000000000000000000000000000000000000000000000000 ~"
b1111111 w
b1111111 v"
0z"
0}"
1z
b1 y"
1!#
1=
#300000
0=
#305000
b11110000000000 #
b11110000000000 e"
1!
0!#
1=
#310000
0=
#315000
0!
b100010000000000 %#
b100001000000000 $#
b100000000000000 ##
b101 B
b101 C
b10001100101000000110001001101100011101000100000001100010010111000110000001010100011000100101110001100000010101100110000001011100011000000111101001100010010111000110000 *#
b11110000000000 )#
1=
#320000
0=
#325000
b100000000000000000000000 ,"
b100000000000000000000000 9"
b10000000000 8"
b110000000000000000000000 >"
b100010000000000 3"
b1 5"
0-"
b10000001 1"
b10000000 C"
b110000000000000000000000 K"
b11000000000 J"
b10000000 U"
0^
1[
0Z
b10000001 ;"
b100001000000000 E"
b10000000 M"
b100000000000000 W"
b10000000 _"
b100010000000000 4"
b10001 <"
b100001000000000 F"
b10000 N"
b1000000000 L"
b100000000000000 X"
b10000 `"
1@
b100010000000000 <
b100010000000000 F
b100001000000000 ;
b100001000000000 E
b100000000000000 :
b100000000000000 D
1=
#330000
0=
#335000
b10000000000000000000000000000000000000000000000000 )"
b100000000000000000000000000000000000000000000000 `
b1000000000000000000000000000000000000000000000000 '"
b10000001 a"
b1000000000000000000000000000000000000000000000000 b"
b1100000000000000000000000000000000000000000000000 ("
b1100000000000000000000000000000000000000000000000 d"
b100000000000000000000000 g"
b11000000000000000000000000000000000000000000000 o"
b10000001 f"
b0 &"
b10000001 i"
1r"
0@
1=
#340000
0=
#345000
b1000001001000000000000000000000 ~
b100100100000000 !"
b100000000 ""
b1000000000000000000000 $"
b1000000000000000000000 r
b1000000000000000000000 p
b110011 "#
b1 c"
b10010 #"
b10000010 %"
b101000000000000000000000000000000000000000000000000 v
b10100000000000000000000000000000000000000000000000 y
b10000010 x
b10000000000000000000000000000000000000000000000000 t"
b10100000000000000000000000000000000000000000000000 u
b100000000000000000000000000000000000000000000000 ~"
b10000010 w
b10000001 v"
1!#
0r"
1=
#350000
0=
#355000
0!#
b100100100000000 #
b100100100000000 e"
1!
1=
#360000
0=
#365000
0!
b11110000000000 %#
b11110000000000 $#
b11110000000000 ##
b110 B
b110 C
b1000110010100000011000100110110001110100010000000110010001011100011000000101010001100110010111000110000001010110011010000101110001100000011110100110001001100000010111000110000 *#
b100100100000000 )#
1=
#370000
0=
#375000
b100000000000000000000000 >"
b1111111 1"
b1111111 C"
b100000000000000000000000 K"
b10000000000 J"
b1111111 U"
b11110000000000 3"
b1111111 ;"
b11110000000000 E"
b1111111 M"
b11110000000000 W"
b1111111 _"
b11110000000000 4"
b1111 <"
b11110000000000 F"
b1111 N"
b0 L"
b11110000000000 X"
b1111 `"
1@
b11110000000000 <
b11110000000000 F
b11110000000000 ;
b11110000000000 E
b11110000000000 :
b11110000000000 D
1=
#380000
0=
#385000
b0 `
b1111111 a"
b1000000000000000000000000000000000000000000000000 ("
b1000000000000000000000000000000000000000000000000 d"
b10000000000000000000000000000000000000000000000 o"
b1111111 f"
b0 &"
b1111111 i"
1r"
0@
1=
#390000
0=
#395000
b1000000000000000000000000000000 ~
b100000000000000 !"
b0 ""
b0 $"
b0 r
b0 p
b110011 "#
b1 c"
b10000 #"
b10000000 %"
b100000000000000000000000000000000000000000000000000 v
b10000000000000000000000000000000000000000000000000 y
b10000000 x
0r"
b10000000000000000000000000000000000000000000000000 u
b0 ~"
b10000000 w
b1111111 v"
1!#
1=
#400000
0=
#405000
b100000000000000 #
b100000000000000 e"
1!
0!#
1=
#410000
0=
#415000
0!
b0 %#
b0 $#
b0 ##
b111 B
b111 C
b10001100101000000110001001101100011101000100000001100010010111000110000001010100011000100101110001100000010101100110001001011100011000000111101001100100010111000110000 *#
b100000000000000 )#
1=
#420000
0=
#425000
b0 ,"
b0 >"
b0 P"
b0 9"
b0 8"
b0 K"
b0 J"
b0 ]"
b0 \"
b0 5"
1-"
b1110000 1"
b0 G"
1?"
b1110000 C"
b0 Y"
1Q"
b1110000 U"
1^
0[
b0 3"
1Z
b1110000 ;"
1V
0S
b0 E"
1R
b1110000 M"
1N
0K
b0 W"
1J
b1110000 _"
b0 4"
b0 <"
b0 F"
b0 N"
b0 X"
b0 `"
1@
b0 <
b0 F
b0 ;
b0 E
b0 :
b0 D
1=
#430000
0=
#435000
b0 )"
b0 `
b0 '"
b1110000 a"
b0 b"
b0 ("
b0 d"
1n"
b0 g"
b0 o"
b1110000 f"
b1111110001 &"
b1100001 i"
1r"
0@
1=
#440000
0=
#445000
b0 ~
b0 !"
b110011 "#
b110011 c"
b111001111 #"
b111111 %"
b0 v
b0 y
b111111 x
1{"
b0 u
b0 t"
b111111 w
b1110000 v"
1!#
0r"
1=
#450000
0=
#455000
0!#
b0 #
b0 e"
1!
1=
#460000
0=
#465000
0!
b11110000000000 $#
b111111000000000 ##
b1000 B
b1000 C
b10001100101000000110001001101100011101000100000001100000010111000110000001010100011000000101110001100000010101100110000001011100011000000111101001100000010111000110000 *#
b0 )#
1=
#470000
0=
#475000
1k
1n
b100000000000000000000000 >"
b110000000000000000000000 P"
b100000000000000000000000 K"
b10000000000 J"
b110000000000000000000000 ]"
b11000000000 \"
b11110000000000 E"
b1 G"
0?"
b1111111 C"
b111111000000000 W"
b1 Y"
b10001111 U"
0Q"
1R"
0V
1S
0R
b1111111 M"
0N
1K
b10001111 _"
0J
1I
b11110000000000 F"
b1111 N"
b111111000000000 X"
b11111 `"
b1000000000 ^"
1@
b11110000000000 ;
b11110000000000 E
b111111000000000 :
b111111000000000 D
1=
#480000
0=
#485000
b1100000000000000000000000000000000000000000000000 `
b10001111 a"
b1100000000000000000000000000000000000000000000000 ("
b1100000000000000000000000000000000000000000000000 d"
0n"
b11000000000000000000000000000000000000000000000 o"
b11111 &"
b10001111 i"
1m"
1q"
1r"
0@
1=
#490000
0=
#495000
b1000000000 ""
b10000000000000000000000 $"
b10000000000000000000000 r
b10000000000000000000000 p
b1000111110000000000000000000000 ~
1d
0e
b111110000000000 !"
b110000000000000000000000000000000000000000000000000 v
b10 c"
b110011 "#
b11111 #"
b10001111 %"
b1100000000000000000000000000000000000000000000000 y
b10001111 x
0r"
0{"
b1100000000000000000000000000000000000000000000000 u
b1100000000000000000000000000000000000000000000000 ~"
b10001111 w
b10001111 v"
1z"
1}"
1!#
1=
#500000
0=
#505000
b111111000000000 #
b111111000000000 e"
1!
0!#
1=
#510000
0=
#515000
0!
b111110000000000 $#
b0 ##
b1001 B
b1001 C
b100011001010000001100010011011000111010001000000100111001100001010011100010101000110001001011100011000000101011001100000010111000110000 '#
1=
#520000
0=
#525000
b0 P"
1A"
b10001111 C"
b0 Y"
b1110000 U"
1Q"
0R"
b0 ]"
b0 \"
b111110000000000 E"
1P
b10001111 M"
1N
0K
b0 W"
b1110000 _"
1J
0I
b111110000000000 F"
b11111 N"
b0 X"
b0 `"
b0 ^"
1@
b111110000000000 ;
b111110000000000 E
b0 :
b0 D
1=
#530000
0=
#535000
b0 `
b10000000 a"
b0 ("
b0 d"
1n"
b0 o"
b10000 &"
b10000000 i"
1r"
0@
1=
#540000
0=
#545000
b0 ""
b0 $"
b0 r
b0 p
b0 ~
0d
b0 !"
b110011 "#
b110011 c"
b111011111 #"
b1001111 %"
b0 v
b0 y
b1001111 x
1{"
b0 u
b0 ~"
b1001111 w
b10000000 v"
1!#
0r"
1=
#550000
0=
#555000
0!#
1!
1=
#560000
0=
#565000
0!
b1011110000000000 $#
b11110000000000 ##
b1010 B
b1010 C
b1000110010100000011000100110110001110100010000000110000001010100100100101101110011001100010101100110000 '#
1=
#570000
0=
#575000
0k
0n
b100000000000000000000000 P"
b100000000000000000000000 ]"
b10000000000 \"
1l
0A"
b1111111 C"
b11110000000000 W"
b1 Y"
0Q"
b1111111 U"
b1011110000000000 E"
1="
0P
b1111111 M"
0N
1K
0J
b1111111 _"
b1011110000000000 F"
1I"
b1111 N"
b11110000000000 X"
b1111 `"
1@
b1011110000000000 ;
b1011110000000000 E
b11110000000000 :
b11110000000000 D
1=
#580000
0=
#585000
b10000000000000000000000000000000000000000000000010 )"
b10111111111111111111111111111111111111111111111110 `
b11111111111111111111111111111111111111111111111111 '"
b1111111 a"
b1000000000000000000000000000000000000000000000000 ("
b1000000000000000000000000000000000000000000000000 d"
b1 *"
1_
1a
0n"
b10000000000000000000000000000000000000000000000 o"
b1111 &"
b1111111 i"
1p"
0m"
0q"
1r"
0@
1=
#590000
0=
#595000
b1111 #"
b1111111 %"
b10111111100000000000000000000000 ~
0d
0e
b1011110000000000 !"
b100000000000000000000000000000000000000000000000000 v
b10 c"
b110011 "#
b1111111 x
b1000000000000000000000000000000000000000000000000 y
0o
1t
0r"
0{"
b10000000000000000000000000000000000000000000000010 t"
b101000000000000000000000000000000000000000000000000 u
b10111111111111111111111111111111111111111111111110 ~"
b1111111 w
b1111111 v"
1u"
1|"
0z"
0}"
1!#
1=
#600000
0=
#605000
b1011110000000000 #
b1011110000000000 e"
1!
0!#
1=
#610000
0=
#615000
0!
b1011 B
b1011 C
b1000110010100000011000100110110001110100010000000110001001011100011000000101010001010000010110100110001001011100011000000101001001010110011000000101110001100000011110100101101001100010010111000110000 *#
b1011110000000000 )#
1=
